Division,WeightClassKg,Place,Name,Team,BodyweightKg,Best3SquatKg,Best3BenchKg,Best3DeadliftKg,TotalKg,Equipment,Event,Sex
Boys,55.79,1,Zach Ramirez,Decatur,51.89,120.2,65.77,129.27,315.25,Single-ply,SBD,M
Boys,51.71,2,Jonathan Esquivel,Melissa,49.53,106.59,61.23,120.2,288.03,Single-ply,SBD,M
Boys,51.71,3,Tristan Bannister,Tom Bean,48.99,61.23,38.56,77.11,176.9,Single-ply,SBD,M
Boys,51.71,4,Justin Bilbrey,Howe,51.71,54.43,47.63,68.04,170.1,Single-ply,SBD,M
Boys,55.79,1,Dillan Brown,Decatur,55.25,179.17,95.25,183.7,458.13,Single-ply,SBD,M
Boys,55.79,2,Nolan Newville,Decatur,54.34,156.49,86.18,167.83,410.5,Single-ply,SBD,M
Boys,59.87,1,Alejandro Beltran,Decatur,59.78,174.63,102.06,172.37,449.06,Single-ply,SBD,M
Boys,59.87,2,Chad Layton,Decatur,59.51,102.06,74.84,133.81,310.71,Single-ply,SBD,M
Boys,59.87,3,Zecharia Heath,Anna,59.87,124.74,63.5,104.33,292.57,Single-ply,SBD,M
Boys,59.87,4,Romario Hernandez,Krum,58.24,113.4,61.23,113.4,288.03,Single-ply,SBD,M
Boys,59.87,5,Jake Vest,Blue Ridge,58.06,90.72,74.84,108.86,274.42,Single-ply,SBD,M
Boys,59.87,6,Beau Reardon,Melissa,57.33,92.99,54.43,113.4,260.82,Single-ply,SBD,M
Boys,67.13,7,Jacob Blagburn,Blue Ridge,59.96,81.65,58.97,108.86,249.48,Single-ply,SBD,M
Boys,59.87,8,David Bowling,Blue Ridge,57.7,65.77,43.09,88.45,197.31,Single-ply,SBD,M
Boys,59.87,DQ,Ian Concepion,Krum,59.87,,,,,Single-ply,SBD,M
Boys,59.87,DQ,Tyler Minnis,Lake Dallas,59.87,,,,,Single-ply,SBD,M
Boys,59.87,DQ,Chance Willits,Howe,59.87,,,,,Single-ply,SBD,M
Boys,59.87,DQ,Trevor Jones,Howe,59.87,,,,,Single-ply,SBD,M
Boys,59.87,DQ,Johnathan Juarez,Celina,57.7,,,,,Single-ply,SBD,M
Boys,67.13,1,Tony Solis,Krum,65.32,149.69,88.45,161.03,399.16,Single-ply,SBD,M
Boys,67.13,2,Luke Parrish,Tom Bean,63.78,151.95,88.45,149.69,390.09,Single-ply,SBD,M
Boys,67.13,3,Jarrell Washington,Leonard,64.86,145.15,92.99,149.69,387.82,Single-ply,SBD,M
Boys,67.13,4,Andrew Smith #12,Anna,66.22,138.35,79.38,158.76,376.48,Single-ply,SBD,M
Boys,67.13,5,Brock Figart,Lake Dallas,63.78,131.54,88.45,136.08,356.07,Single-ply,SBD,M
Boys,67.13,6,Korey Sanchez,Anna,67.13,120.2,79.38,149.69,349.27,Single-ply,SBD,M
Boys,67.13,7,Hunter Green #3,Anna,65.77,129.27,79.38,124.74,333.39,Single-ply,SBD,M
Boys,74.84,8,Danny Nunez,Blue Ridge,67.31,108.86,70.31,142.88,322.05,Single-ply,SBD,M
Boys,67.13,9,Eric Valenzuela,Dallas Life Oak Cliff,64.68,115.67,79.38,124.74,319.78,Single-ply,SBD,M
Boys,67.13,9,Eric Valenzuela,Dallas Life Oak Cliff,64.68,115.67,79.38,124.74,319.78,Single-ply,SBD,M
Boys,67.13,10,Brennan Ellis,Krum,66.04,122.47,74.84,122.47,319.78,Single-ply,SBD,M
Boys,67.13,11,Julian Drake,Dallas Life Oak Cliff,60.51,111.13,74.84,124.74,310.71,Single-ply,SBD,M
Boys,67.13,11,Julian Drake,Dallas Life Oak Cliff,60.51,111.13,74.84,124.74,310.71,Single-ply,SBD,M
Boys,67.13,12,Kyle Rhinehart,Celina,63.14,124.74,61.23,124.74,310.71,Single-ply,SBD,M
Boys,67.13,13,Bradlee Figart,Lake Dallas,65.14,113.4,90.72,104.33,308.44,Single-ply,SBD,M
Boys,67.13,14,Gio Soto,Leonard,61.01,102.06,58.97,127.01,288.03,Single-ply,SBD,M
Boys,67.13,15,Wade Woodard,Prosper,63.78,102.06,72.57,99.79,274.42,Single-ply,SBD,M
Boys,67.13,16,Roger Bryant,Krum,60.15,113.4,54.43,102.06,269.89,Single-ply,SBD,M
Boys,67.13,17,Hans Hernandez,Commerce,66.04,92.99,70.31,104.33,267.62,Single-ply,SBD,M
Boys,67.13,18,Cody Long,Anna,65.77,92.99,43.09,120.2,256.28,Single-ply,SBD,M
Boys,67.13,19,Jamie Drake,Dallas Life Oak Cliff,60.87,106.59,,,106.59,Single-ply,S,M
Boys,67.13,19,Jamie Drake,Dallas Life Oak Cliff,60.87,106.59,,,106.59,Single-ply,S,M
Boys,67.13,20,Tristan Childers,Anna,63.5,97.52,,,97.52,Single-ply,S,M
Boys,67.13,DQ,Andres Rodriguez,Dallas Life Oak Cliff,67.13,,,,,Single-ply,S,M
Boys,67.13,DQ,Ramon Fierro,Howe,62.32,,,,,Single-ply,S,M
Boys,67.13,DQ,Mark Contreras,Lake Dallas,67.13,,,,,Single-ply,S,M
Boys,67.13,DQ,Andres Rodriguez,Dallas Life Oak Cliff,67.13,,,,,Single-ply,S,M
Boys,67.13,DQ,Jacaob Higgs,Tom Bean,67.13,,,,,Single-ply,S,M
Boys,74.84,1,Michael Williams,Dallas Life Oak Cliff,74.12,174.63,124.74,226.8,526.17,Single-ply,SBD,M
Boys,74.84,1,Michael Williams,Dallas Life Oak Cliff,74.12,174.63,124.74,226.8,526.17,Single-ply,SBD,M
Boys,74.84,2,Dustin Williams,Anna,73.94,183.7,120.2,183.7,487.61,Single-ply,SBD,M
Boys,74.84,3,Sebastian Spencer,Anna,69.4,188.24,108.86,176.9,474,Single-ply,SBD,M
Boys,74.84,4,Halston Delgado,Decatur,72.94,181.44,106.59,183.7,471.74,Single-ply,SBD,M
Boys,74.84,5,Marcus Cantera,Commerce,72.85,145.15,108.86,172.37,426.38,Single-ply,SBD,M
Boys,74.84,6,Dustin Richards,Krum,74.03,158.76,83.91,170.1,412.77,Single-ply,SBD,M
Boys,74.84,7,Brandon Bramer,Tom Bean,73.48,136.08,83.91,136.08,356.07,Single-ply,SBD,M
Boys,74.84,8,Chase Pinion,Anna,72.57,124.74,79.38,131.54,335.66,Single-ply,SBD,M
Boys,74.84,9,Brandon Jackson #15,Dallas Life Oak Cliff,68.95,111.13,74.84,129.27,315.25,Single-ply,SBD,M
Boys,74.84,9,Brandon Jackson #15,Dallas Life Oak Cliff,68.95,111.13,74.84,129.27,315.25,Single-ply,SBD,M
Boys,74.84,10,Garrison Moore,Melissa,72.48,113.4,72.57,127.01,312.98,Single-ply,SBD,M
Boys,74.84,11,Logan Shipley,Krum,72.03,102.06,61.23,124.74,288.03,Single-ply,SBD,M
Boys,74.84,12,Nick Nicosia,Lake Dallas,72.12,108.86,56.7,120.2,285.76,Single-ply,SBD,M
Boys,74.84,DQ,Hunter Steadman,Lake Dallas,74.75,,,,,Single-ply,SBD,M
Boys,74.84,DQ,Ty Grissom,Lake Dallas,74.84,,,,,Single-ply,SBD,M
Boys,74.84,DQ,Jonathan Drake,Dallas Life Oak Cliff,74.12,,,,,Single-ply,SBD,M
Boys,74.84,DQ,Jonathan Drake,Dallas Life Oak Cliff,74.12,,,,,Single-ply,SBD,M
Boys,74.84,DQ,Isaac Olvera,Anna,71.21,,,,,Single-ply,SBD,M
Boys,74.84,DQ,Chris Rhinehart,Celina,69.76,,,,,Single-ply,SBD,M
Boys,82.1,1,Jesus Vargas,Celina,79.2,199.58,142.88,224.53,566.99,Single-ply,SBD,M
Boys,82.1,2,Marcus Vera,Howe,76.38,224.53,102.06,210.92,537.51,Single-ply,SBD,M
Boys,82.1,3,Gabe Conner,Commerce,81.92,181.44,106.59,210.92,498.95,Single-ply,SBD,M
Boys,82.1,4,Bobby Byrd,Decatur,77.93,195.04,102.06,190.51,487.61,Single-ply,SBD,M
Boys,82.1,5,Blake Haney,Decatur,81.83,172.37,106.59,197.31,476.27,Single-ply,SBD,M
Boys,82.1,6,Brad Williams #3,Melissa,78.11,147.42,88.45,172.37,408.23,Single-ply,SBD,M
Boys,82.1,7,Tyler Clemens,Van Alstyne,80.83,142.88,102.06,140.61,385.55,Single-ply,SBD,M
Boys,82.1,8,Jordan Buckaloo,Leonard,78.02,136.08,83.91,163.29,383.29,Single-ply,SBD,M
Boys,82.1,9,Jared Ramsey,Van Alstyne,80.92,133.81,102.06,147.42,383.29,Single-ply,SBD,M
Boys,82.1,10,Deunte Levine,Dallas Life Oak Cliff,75.84,138.35,88.45,142.88,369.68,Single-ply,SBD,M
Boys,82.1,10,Deunte Levine,Dallas Life Oak Cliff,75.84,138.35,88.45,142.88,369.68,Single-ply,SBD,M
Boys,82.1,11,Jacob Olivarez,Krum,77.66,142.88,81.65,142.88,367.41,Single-ply,SBD,M
Boys,82.1,12,Bryson Hebert,Prosper,80.65,140.61,83.91,142.88,367.41,Single-ply,SBD,M
Boys,82.1,13,Arnold Contreras,Leonard,79.29,154.22,65.77,140.61,360.61,Single-ply,SBD,M
Boys,82.1,14,Eric Ramirez,Decatur,78.11,138.35,,,138.35,Single-ply,S,M
Boys,82.1,DQ,Nick Liccione,Howe,77.38,,,,,Single-ply,S,M
Boys,82.1,DQ,Richard Rodriguez,Dallas Life Oak Cliff,77.93,,,,,Single-ply,S,M
Boys,82.1,DQ,Hunter Stewart,Argyle,80.74,,,,,Single-ply,S,M
Boys,82.1,DQ,John Norrell,Anna,81.65,,,,,Single-ply,S,M
Boys,82.1,DQ,Richard Rodriguez,Dallas Life Oak Cliff,77.93,,,,,Single-ply,S,M
Boys,89.81,1,Shelby Long,Anna,84.82,217.72,106.59,222.26,546.58,Single-ply,SBD,M
Boys,89.81,2,Casey Davis,Howe,87.09,172.37,115.67,181.44,469.47,Single-ply,SBD,M
Boys,99.79,3,Dj Hollis,Melissa,89.99,151.95,129.27,174.63,455.86,Single-ply,SBD,M
Boys,99.79,4,Ben Howe,Lake Dallas,90.04,172.37,102.06,167.83,442.25,Single-ply,SBD,M
Boys,89.81,5,Omar Alonso,Prosper,86.18,161.03,95.25,165.56,421.84,Single-ply,SBD,M
Boys,89.81,6,Casey Bowens,Dallas Life Oak Cliff,86.73,161.03,102.06,156.49,419.57,Single-ply,SBD,M
Boys,89.81,6,Casey Bowens,Dallas Life Oak Cliff,86.73,161.03,102.06,156.49,419.57,Single-ply,SBD,M
Boys,89.81,7,Curtis Sims,Leonard,83.64,142.88,68.04,156.49,367.41,Single-ply,SBD,M
Boys,89.81,8,Garrett Lansford,Anna,84.82,136.08,79.38,142.88,358.34,Single-ply,SBD,M
Boys,89.81,9,Raymond Taylor,Anna,89.81,142.88,79.38,124.74,347,Single-ply,SBD,M
Boys,89.81,10,Ty Laird,Krum,86.55,127.01,88.45,113.4,328.85,Single-ply,SBD,M
Boys,89.81,11,Cody Carroll,Lake Dallas,83.55,113.4,65.77,131.54,310.71,Single-ply,SBD,M
Boys,89.81,12,Hayden Self,Anna,88,102.06,47.63,120.2,269.89,Single-ply,SBD,M
Boys,89.81,13,Jd Patterson,Howe,84.1,131.54,,,131.54,Single-ply,S,M
Boys,89.81,14,Erik Volkart,Krum,86.36,102.06,,,102.06,Single-ply,S,M
Boys,89.81,DQ,Garrett Dansby,Van Alstyne,89.81,,,,,Single-ply,S,M
Boys,89.81,DQ,Martin Ayala,Dallas Life Oak Cliff,89.81,,,,,Single-ply,S,M
Boys,89.81,DQ,Anthony Garcia,Celina,83.46,,,,,Single-ply,S,M
Boys,89.81,DQ,Martin Ayala,Dallas Life Oak Cliff,89.81,,,,,Single-ply,S,M
Boys,99.79,1,Eduardo Webber,Howe,93.08,267.62,145.15,201.85,614.62,Single-ply,SBD,M
Boys,99.79,2,Zach Rosser,Lake Dallas,92.9,192.78,136.08,204.12,532.97,Single-ply,SBD,M
Boys,99.79,3,Scott Blair,Anna,97.52,204.12,108.86,210.92,523.9,Single-ply,SBD,M
Boys,99.79,4,Graysen Schantz,Lake Dallas,95.62,204.12,122.47,190.51,517.1,Single-ply,SBD,M
Boys,99.79,5,Marcus Stroud,Prosper,92.71,183.7,99.79,188.24,471.74,Single-ply,SBD,M
Boys,99.79,6,Ian Lackey,Commerce,94.08,158.76,99.79,185.97,444.52,Single-ply,SBD,M
Boys,99.79,7,Cole Selby,Decatur,96.8,170.1,102.06,170.1,442.25,Single-ply,SBD,M
Boys,99.79,8,Denzell Perry,Dallas Life Oak Cliff,94.17,156.49,115.67,165.56,437.72,Single-ply,SBD,M
Boys,99.79,8,Denzell Perry,Dallas Life Oak Cliff,94.17,156.49,115.67,165.56,437.72,Single-ply,SBD,M
Boys,99.79,9,Shane Tilden,Krum,95.98,138.35,95.25,149.69,383.29,Single-ply,SBD,M
Boys,99.79,10,Robert Miller #13,Anna,93.89,154.22,79.38,145.15,378.75,Single-ply,SBD,M
Boys,99.79,11,Juan Salas,Melissa,92.26,138.35,77.11,158.76,374.21,Single-ply,SBD,M
Boys,99.79,12,Victor Martinez,Dallas Life Oak Cliff,95.25,115.67,92.99,156.49,365.14,Single-ply,SBD,M
Boys,99.79,12,Victor Martinez,Dallas Life Oak Cliff,95.25,115.67,92.99,156.49,365.14,Single-ply,SBD,M
Boys,99.79,13,Dawson Stewart,Howe,91.08,158.76,,,158.76,Single-ply,S,M
Boys,99.79,14,Hunter Harward,Krum,91.63,136.08,,,136.08,Single-ply,S,M
Boys,99.79,15,Dakota Smith,Leonard,99.61,127.01,79.38,136.08,342.46,Single-ply,SBD,M
Boys,99.79,DQ,Emilio Hernandez,Lake Dallas,99.79,,,,,Single-ply,SBD,M
Boys,99.79,DQ,Mitchell Bateman,Argyle,90.17,,,,,Single-ply,SBD,M
Boys,109.77,1,Cortez Crosby,Commerce,109.23,208.65,154.22,210.92,573.79,Single-ply,SBD,M
Boys,109.77,2,Fritz Hull,Prosper,109.04,183.7,115.67,163.29,462.66,Single-ply,SBD,M
Boys,109.77,3,David Lawson,Tom Bean,102.78,183.7,111.13,158.76,453.59,Single-ply,SBD,M
Boys,109.77,4,Conner Croxville,Prosper,104.87,145.15,104.33,147.42,396.89,Single-ply,SBD,M
Boys,109.77,5,Esteban Martinez,Krum,101.97,142.88,97.52,154.22,394.63,Single-ply,SBD,M
Boys,109.77,6,Adam Williams #5,Melissa,107.05,147.42,83.91,147.42,378.75,Single-ply,SBD,M
Boys,109.77,7,Brandon Kessler,Prosper,106.59,138.35,99.79,136.08,374.21,Single-ply,SBD,M
Boys,109.77,8,Nick Gee,Prosper,104.42,136.08,92.99,136.08,365.14,Single-ply,SBD,M
Boys,109.77,9,Aaron Gilmore,Krum,100.97,113.4,81.65,138.35,333.39,Single-ply,SBD,M
Boys,109.77,10,Tracer Lynch,Blue Ridge,104.69,102.06,65.77,115.67,283.5,Single-ply,SBD,M
Boys,109.77,11,Jordan Mitchell #1,Krum,108.86,122.47,,,122.47,Single-ply,S,M
Boys,109.77,DQ,Steven Rubio,Van Alstyne,109.77,,,,,Single-ply,S,M
Boys,109.77,DQ,Javier Lopez,Decatur,109.77,,,,,Single-ply,S,M
Boys,124.74,1,Tanner Pelham,Anna,124.28,210.92,147.42,197.31,555.65,Single-ply,SBD,M
Boys,124.74,2,Gavin Buckaloo,Leonard,112.94,204.12,124.74,181.44,510.29,Single-ply,SBD,M
Boys,124.74,3,Mark Boevers,Van Alstyne,114.4,161.03,122.47,170.1,453.59,Single-ply,SBD,M
Boys,124.74,4,Alex Mayes,Van Alstyne,117.39,158.76,115.67,170.1,444.52,Single-ply,SBD,M
Boys,124.74,5,Quinton Carroll,Dallas Life Oak Cliff,113.49,179.17,88.45,174.63,442.25,Single-ply,SBD,M
Boys,124.74,5,Quinton Carroll,Dallas Life Oak Cliff,113.49,179.17,88.45,174.63,442.25,Single-ply,SBD,M
Boys,124.74,6,Dario Richardson,Dallas Life Oak Cliff,120.47,106.59,79.38,129.27,315.25,Single-ply,SBD,M
Boys,124.74,6,Dario Richardson,Dallas Life Oak Cliff,120.47,106.59,79.38,129.27,315.25,Single-ply,SBD,M
Boys,124.74,7,Dan Bluitt,Dallas Life Oak Cliff,116.75,183.7,,,183.7,Single-ply,S,M
Boys,124.74,7,Dan Bluitt,Dallas Life Oak Cliff,116.75,183.7,,,183.7,Single-ply,S,M
Boys,124.74+,1,Trevor Melugin,Prosper,135.99,238.14,151.95,183.7,573.79,Single-ply,SBD,M
Boys,124.74+,2,John Laubacher,Lake Dallas,152.77,208.65,131.54,165.56,505.76,Single-ply,SBD,M
Boys,124.74+,3,Cole Collier,Prosper,150.32,161.03,111.13,158.76,430.91,Single-ply,SBD,M
Boys,124.74+,4,Cameron Adkins,Leonard,126.55,136.08,83.91,154.22,374.21,Single-ply,SBD,M
Boys,124.74+,5,Kody Miles,Commerce,145.88,219.99,,,219.99,Single-ply,S,M
Boys,124.74+,6,Rod Jackson,Commerce,126.92,145.15,,,145.15,Single-ply,S,M
Boys,124.74+,DQ,Joe Merino,Anna,136.53,,,,,Single-ply,S,M
Boys,124.74+,DQ,Connor Mayes,Van Alstyne,146.42,,,,,Single-ply,S,M
