Division,WeightClassKg,Place,Name,Team,BodyweightKg,Best3SquatKg,Best3BenchKg,Best3DeadliftKg,TotalKg,Equipment,Event,Sex,BirthDate
Boys,51.71,1,Renier Reyes,Decatur,51.71,142.88,90.72,170.1,403.7,Single-ply,SBD,M,
Boys,51.71,2,Noah Hernandez,Lake Worth,51.07,165.56,83.91,149.69,399.16,Single-ply,SBD,M,
Boys,51.71,3,Kenaj Washington,Kennedale,51.44,147.42,77.11,149.69,374.21,Single-ply,SBD,M,
Boys,51.71,4,Jaden Lopez,Sunnyvale,49.8,99.79,52.16,106.59,258.55,Single-ply,SBD,M,
Boys,51.71,5,Donovan Carter #3,Carrollton Ranchview,45.09,95.25,40.82,99.79,235.87,Single-ply,SBD,M,
Boys,51.71,6,Angel Castleberry,Bridgeport,45.81,83.91,43.09,88.45,215.46,Single-ply,SBD,M,
Boys,51.71,DQ,Evan Guzman,Mineral Wells,51.71,147.42,86.18,,,Single-ply,SBD,M,
Boys,51.71,DQ,Isaiah Russ,Fort Worth Western Hills,48.44,113.4,,,,Single-ply,SBD,M,
Boys,55.79,1,Carter McFadden,Anna,55.34,188.24,90.72,176.9,455.86,Single-ply,SBD,M,
Boys,55.79,2,Peyton Knight,Melissa,54.88,176.9,102.06,163.29,442.25,Single-ply,SBD,M,
Boys,55.79,3,Warren Ruiz-Demaree,Anna,55.25,167.83,97.52,165.56,430.91,Single-ply,SBD,M,
Boys,55.79,4,Schon Nichols,Farmersville,54.61,161.03,86.18,170.1,417.3,Single-ply,SBD,M,
Boys,55.79,5,Weston Hill,Sanger,55.07,154.22,70.31,158.76,383.29,Single-ply,SBD,M,
Boys,55.79,6,Ethan Jackson,Springtown,54.61,149.69,79.38,151.95,381.02,Single-ply,SBD,M,
Boys,55.79,7,Brayden Loucks,Krum,54.98,115.67,70.31,131.54,317.51,Single-ply,SBD,M,
Boys,55.79,8,Dylan Cortez,Castleberry,55.43,113.4,68.04,122.47,303.91,Single-ply,SBD,M,
Boys,55.79,9,Zandon White,Bridgeport,55.34,124.74,70.31,104.33,299.37,Single-ply,SBD,M,
Boys,55.79,10,Dylan Martinez,Castleberry,54.16,88.45,52.16,83.91,224.53,Single-ply,SBD,M,
Boys,55.79,DQ,Evan Kuhn,Mineral Wells,54.88,127.01,65.77,,,Single-ply,SBD,M,
Boys,59.87,1,Jerry Cortez,Farmersville,59.6,176.9,106.59,167.83,451.32,Single-ply,SBD,M,
Boys,59.87,2,Rowdy Parker,Bridgeport,57.52,165.56,86.18,174.63,426.38,Single-ply,SBD,M,
Boys,59.87,3,Anthony Henry,Gainesville,58.97,165.56,83.91,163.29,412.77,Single-ply,SBD,M,
Boys,59.87,4,Dominic Cunningham,Kennedale,58.6,156.49,88.45,165.56,410.5,Single-ply,SBD,M,
Boys,59.87,5,Dylan Slyter,Sunnyvale,59.6,142.88,79.38,172.37,394.63,Single-ply,SBD,M,
Boys,59.87,6,Michael Ramirez,Lake Worth,58.33,142.88,77.11,156.49,376.48,Single-ply,SBD,M,
Boys,59.87,7,Davis McAlister,Aubrey,57.88,145.15,86.18,142.88,374.21,Single-ply,SBD,M,
Boys,59.87,8,Manuel Rodriguez #2,Decatur,59.24,136.08,81.65,154.22,371.95,Single-ply,SBD,M,
Boys,59.87,DQ,Myles Williams,Melissa,59.24,,,,,Single-ply,SBD,M,
Boys,59.87,DQ,Adrian Perez,Castleberry,57.7,158.76,88.45,,,Single-ply,SBD,M,
Boys,59.87,DQ,Mathew Salazar,Lake Worth,59.6,136.08,95.25,,,Single-ply,SBD,M,
Boys,59.87,DQ,Don Todd,Iowa Park,57.97,145.15,81.65,,,Single-ply,SBD,M,
Boys,67.13,1,Creed Carter,Sanger,64.41,238.14,127.01,213.19,578.33,Single-ply,SBD,M,
Boys,67.13,2,Joe Cullum,Kennedale,66.95,226.8,138.35,183.7,548.85,Single-ply,SBD,M,
Boys,67.13,3,Marlete Joyner,Kennedale,66.41,215.46,117.93,204.12,537.51,Single-ply,SBD,M,
Boys,67.13,4,Logan Leal,Iowa Park,66.5,190.51,111.13,185.97,487.61,Single-ply,SBD,M,
Boys,67.13,5,Christopher Laxamana,Wichita Falls Hirschi,66.22,172.37,102.06,210.92,485.34,Single-ply,SBD,M,
Boys,67.13,6,Ethan Barboza,Castleberry,66.13,188.24,115.67,176.9,480.81,Single-ply,SBD,M,
Boys,67.13,7,James Gatson,Melissa,62.69,199.58,90.72,188.24,478.54,Single-ply,SBD,M,
Boys,67.13,8,Saul Bazan,Castleberry,66.32,181.44,106.59,190.51,478.54,Single-ply,SBD,M,
Boys,67.13,9,Jacob Tull,Farmersville,66.95,165.56,120.2,188.24,474,Single-ply,SBD,M,
Boys,67.13,10,Zack Carter,Sanger,67.13,190.51,88.45,192.78,471.74,Single-ply,SBD,M,
Boys,67.13,11,Jonovan Eichelberger,Carrollton Ranchview,64.5,172.37,104.33,188.24,464.93,Single-ply,SBD,M,
Boys,67.13,DQ,Chance Cruz,Argyle,65.77,197.31,102.06,,,Single-ply,SBD,M,
Boys,74.84,1,Colby Stinedurf,Farmersville,72.12,247.21,158.76,256.28,662.24,Single-ply,SBD,M,
Boys,74.84,2,Micah Conner,Kennedale,71.4,263.08,122.47,231.33,616.89,Single-ply,SBD,M,
Boys,74.84,3,Cameron Hynson,Kennedale,73.53,226.8,138.35,224.53,589.67,Single-ply,SBD,M,
Boys,74.84,4,Carson Stevens,Iowa Park,73.03,235.87,124.74,195.04,555.65,Single-ply,SBD,M,
Boys,74.84,5,Josué Hernández,Anna,72.85,215.46,124.74,204.12,544.31,Single-ply,SBD,M,
Boys,74.84,6,Victor Martinez,Anna,73.66,213.19,117.93,208.65,539.77,Single-ply,SBD,M,
Boys,74.84,7,Grayson Blanchard,Celina,73.03,210.92,120.2,201.85,532.97,Single-ply,SBD,M,
Boys,74.84,8,Brendene Ramos,Castleberry,74.03,195.04,138.35,195.04,528.44,Single-ply,SBD,M,
Boys,74.84,9,Jesus Garcia #9,Lake Worth,74.12,188.24,127.01,210.92,526.17,Single-ply,SBD,M,
Boys,74.84,10,Eric Clark,Anna,72.67,195.04,106.59,195.04,496.68,Single-ply,SBD,M,
Boys,74.84,11,Jose Licerio,Castleberry,73.66,188.24,127.01,176.9,492.15,Single-ply,SBD,M,
Boys,74.84,DQ,Kam Cottle,Farmersville,74.75,213.19,99.79,,,Single-ply,SBD,M,
Boys,82.1,1,Ethan Cortez,Farmersville,79.29,242.67,147.42,224.53,614.62,Single-ply,SBD,M,
Boys,82.1,2,Dwayne Wilson,Gainesville,80.65,263.08,129.27,219.99,612.35,Single-ply,SBD,M,
Boys,82.1,3,Rhett Attaway,Farmersville,78.02,240.4,113.4,247.21,601.01,Single-ply,SBD,M,
Boys,82.1,4,Jose Martinez #6,Celina,80.65,226.8,138.35,219.99,585.13,Single-ply,SBD,M,
Boys,82.1,5,Mason Ford,Gainesville,79.74,226.8,145.15,201.85,573.79,Single-ply,SBD,M,
Boys,82.1,6,Javier Huerta,Bridgeport,78.29,210.92,138.35,217.72,566.99,Single-ply,SBD,M,
Boys,82.1,7,Jayce Morgan,Gainesville,79.83,222.26,124.74,183.7,530.7,Single-ply,SBD,M,
Boys,82.1,8,Jd Craven,Iowa Park,81.01,179.17,133.81,206.38,519.36,Single-ply,SBD,M,
Boys,82.1,9,Colby White,Bridgeport,79.47,192.78,102.06,210.92,505.76,Single-ply,SBD,M,
Boys,82.1,10,Mark Castle,Argyle,79.56,206.38,86.18,210.92,503.49,Single-ply,SBD,M,
Boys,82.1,DQ,Robert Singleton,Gainesville,77.29,,1.36,,,Single-ply,SBD,M,
Boys,82.1,DQ,Jacob Miller,Krum,78.74,183.7,,,,Single-ply,SBD,M,
Boys,89.81,1,Yovanni Juarez,Gainesville,88.18,272.16,183.7,215.46,671.32,Single-ply,SBD,M,
Boys,89.81,2,Dax Ogden,Melissa,87.36,231.33,136.08,215.46,582.87,Single-ply,SBD,M,
Boys,89.81,3,Trey Cook,Krum,89.54,213.19,127.01,226.8,566.99,Single-ply,SBD,M,
Boys,89.81,4,Martavious Hill,Aubrey,88.45,222.26,113.4,226.8,562.45,Single-ply,SBD,M,
Boys,89.81,5,Sphend Beqiri,Fort Worth Western Hills,88.99,219.99,136.08,199.58,555.65,Single-ply,SBD,M,
Boys,89.81,6,Jayvin Rodriguez,Melissa,87.45,217.72,138.35,176.9,532.97,Single-ply,SBD,M,
Boys,89.81,7,Shun Mizuno,Carrollton Ranchview,87.82,199.58,102.06,215.46,517.1,Single-ply,SBD,M,
Boys,89.81,8,Gunnar Valverde,Wichita Falls Hirschi,83.37,181.44,127.01,192.78,501.22,Single-ply,SBD,M,
Boys,89.81,9,Colton Westbrook,Nevada Community,83.55,174.63,106.59,190.51,471.74,Single-ply,SBD,M,
Boys,89.81,DQ,Brad Kissinger,Celina,84.01,215.46,,,,Single-ply,SBD,M,
Boys,89.81,DQ,Alex Swartz,Krum,88,,,,,Single-ply,SBD,M,
Boys,89.81,DQ,Alex Luna,Sunnyvale,82.37,208.65,,,,Single-ply,SBD,M,
Boys,99.79,1,Gordian Nzeh-Biko,Wichita Falls Hirschi,98.07,260.82,124.74,231.33,616.89,Single-ply,SBD,M,
Boys,99.79,2,Tristan Perez #1,Wichita Falls Hirschi,91.72,249.48,140.61,204.12,594.21,Single-ply,SBD,M,
Boys,99.79,3,Justin Mays,Melissa,95.16,238.14,122.47,215.46,576.06,Single-ply,SBD,M,
Boys,99.79,4,Christopher Washington,Kennedale,98.16,208.65,138.35,226.8,573.79,Single-ply,SBD,M,
Boys,99.79,5,Caden Joyce,Anna,89.9,233.6,127.01,208.65,569.26,Single-ply,SBD,M,
Boys,99.79,6,Diyan Pun,Sunnyvale,96.25,226.8,136.08,204.12,566.99,Single-ply,SBD,M,
Boys,99.79,7,Zach Clark,Iowa Park,98.43,222.26,149.69,192.78,564.72,Single-ply,SBD,M,
Boys,99.79,8,Will Straight,Wichita Falls Hirschi,98.43,238.14,129.27,185.97,553.38,Single-ply,SBD,M,
Boys,99.79,9,Hayden Meng,Burkburnett,97.16,226.8,102.06,219.99,548.85,Single-ply,SBD,M,
Boys,99.79,10,DeMarques Henry,Fort Worth Western Hills,92.17,213.19,142.88,181.44,537.51,Single-ply,SBD,M,
Boys,99.79,11,Andres Galaviz,Fort Worth Western Hills,89.95,201.85,113.4,192.78,508.02,Single-ply,SBD,M,
Boys,99.79,DQ,Jordan Price,Kennedale,98.61,260.82,,,,Single-ply,SBD,M,
Boys,109.77,1,Jacob Batson,Farmersville,108.86,312.98,142.88,260.82,716.68,Single-ply,SBD,M,
Boys,109.77,2,Davion Haynes,Lake Worth,109.5,254.01,124.74,272.16,650.91,Single-ply,SBD,M,
Boys,109.77,3,Coby Arledge,Iowa Park,99.97,244.94,142.88,226.8,614.62,Single-ply,SBD,M,
Boys,109.77,4,Braedon Schneider,Gainesville,106.23,251.74,127.01,208.65,587.4,Single-ply,SBD,M,
Boys,109.77,5,Cody Newton,Aubrey,105.32,226.8,120.2,226.8,573.79,Single-ply,SBD,M,
Boys,109.77,6,Isaac Copley,Krum,106.5,238.14,142.88,192.78,573.79,Single-ply,SBD,M,
Boys,109.77,7,Josh Queneau,Nevada Community,105.96,215.46,138.35,183.7,537.51,Single-ply,SBD,M,
Boys,109.77,8,Logan Marshall,Bridgeport,108.23,190.51,106.59,179.17,476.27,Single-ply,SBD,M,
Boys,109.77,DQ,Connor Murdock,Krum,104.87,215.46,,,,Single-ply,SBD,M,
Boys,109.77,DQ,Austin Criswell,Argyle,108.05,215.46,,,,Single-ply,SBD,M,
Boys,109.77,DQ,Shawn Stephens,Aubrey,109.68,256.28,154.22,,,Single-ply,SBD,M,
Boys,109.77,DQ,Stevie Hooper,Nevada Community,108.95,201.85,120.2,,,Single-ply,SBD,M,
Boys,124.74,1,Jayden Parsons,Iowa Park,122.74,317.51,192.78,226.8,737.09,Single-ply,SBD,M,
Boys,124.74,2,Julian Casias,Decatur,117.84,288.03,183.7,215.46,687.19,Single-ply,SBD,M,
Boys,124.74,3,Junior Seay,Kennedale,113.9,265.35,174.63,229.06,669.05,Single-ply,SBD,M,
Boys,124.74,4,Jesse Coffey #2,Gainesville,114.31,256.28,192.78,213.19,662.24,Single-ply,SBD,M,
Boys,124.74,5,Ayden Mast,Decatur,123.74,240.4,149.69,208.65,598.74,Single-ply,SBD,M,
Boys,124.74,6,Zander Gonzales,Melissa,122.02,235.87,122.47,170.1,528.44,Single-ply,SBD,M,
Boys,124.74,DQ,Charles Sanders,Castleberry,114.4,,,,,Single-ply,SBD,M,
Boys,124.74,DQ,Victor Garcia,Kennedale,123.6,,,,,Single-ply,SBD,M,
Boys,124.74,DQ,Chris Murray #1,Wichita Falls Hirschi,111.49,,,,,Single-ply,SBD,M,
Boys,124.74,DQ,Michael Reemts,Celina,117.03,258.55,,,,Single-ply,SBD,M,
Boys,124.74,DQ,Jeremiah Caldwell,Burkburnett,121.02,219.99,136.08,,,Single-ply,SBD,M,
Boys,124.74,DQ,Noe Rodriguez,Nevada Community,116.85,265.35,136.08,,,Single-ply,SBD,M,
Boys,124.74+,1,Gavin Emerson,Gainesville,137.8,258.55,195.04,204.12,657.71,Single-ply,SBD,M,
Boys,124.74+,2,Gabe Sandoval,Farmersville,136.53,254.01,136.08,265.35,655.44,Single-ply,SBD,M,
Boys,124.74+,3,Hayden Philpot,Decatur,132,272.16,170.1,210.92,653.17,Single-ply,SBD,M,
Boys,124.74+,4,Brandon Ward,Melissa,129.73,265.35,122.47,215.46,603.28,Single-ply,SBD,M,
Boys,124.74+,5,Ronnie Sears,Lake Worth,129.27,242.67,136.08,206.38,585.13,Single-ply,SBD,M,
Boys,124.74+,6,Jacorie Williams,Fort Worth Western Hills,146.33,244.94,142.88,192.78,580.6,Single-ply,SBD,M,
Boys,124.74+,7,Josh Hicks,Argyle,142.07,224.53,136.08,183.7,544.31,Single-ply,SBD,M,
Boys,124.74+,8,Elijah Minson,Iowa Park,157.4,204.12,140.61,151.95,496.68,Single-ply,SBD,M,
Boys,124.74+,DQ,Aiden McCann,Carrollton Ranchview,127.64,226.8,120.2,,,Single-ply,SBD,M,
Boys,124.74+,DQ,Elijah Ellis,Farmersville,162.93,204.12,163.29,,,Single-ply,SBD,M,
Boys,124.74+,DQ,Johan de la Rosa,Gainesville,136.08,,,,,Single-ply,SBD,M,
Boys,124.74+,DQ,Wes Sanders,Lake Worth,149.05,244.94,142.88,,,Single-ply,SBD,M,
Boys,124.74+,DQ,Colby Henry #1,Kennedale,164.16,238.14,129.27,,,Single-ply,SBD,M,
