Name,Country,Sex,BirthYear,Division,WeightClassKg,BodyweightKg,Squat1Kg,Squat2Kg,Squat3Kg,Best3SquatKg,Bench1Kg,Bench2Kg,Bench3Kg,Best3BenchKg,Deadlift1Kg,Deadlift2Kg,Deadlift3Kg,Best3DeadliftKg,TotalKg,Place,BirthDate,Event,Equipment
Kung-Him Wong,Hong Kong,M,1947,Masters 4,59,56.27,-112.5,-112.5,112.5,112.5,80,82.5,-85,82.5,120,125,130,130,325,1,,SBD,Raw
Daribay Ospanov,Kazakhstan,M,1949,Masters 4,83,82.69,110,120,130,130,110,120,-125,120,120,135,150,150,400,1,,SBD,Raw
Valeriy Stepanenko,Kazakhstan,M,1951,Masters 4,105,104.75,167.5,180,-185.5,180,95,100.5,-103,100.5,-190,-190,190,190,470.5,1,,SBD,Raw
Chien-Lih Hwang,Taiwan,M,1953,Masters 4,93,83.15,100,110,115,115,118,125.5,130.5,130.5,100,105,110,110,355.5,1,,SBD,Raw
Jaead Al-Zurfi,Iraq,M,1961,Masters 3,93,84.4,70,80,100,100,70,80,90,90,-100,100,130,130,320,1,,SBD,Raw
Paul Levine,Thailand,M,1962,Masters 3,120+,125.05,-125,-125,125,125,115,122.5,127.5,127.5,-150,150,170,170,422.5,1,,SBD,Raw
Stephen Varady,Australia,M,1962,Masters 3,83,82.22,160,172.5,177.5,177.5,137.5,143,149,149,200,215,-222.5,215,541.5,1,,SBD,Raw
Andrew Robertson,Singapore,M,1965,Masters 2,93,91.1,150,157.5,-165,157.5,110,117.5,-122.5,117.5,170,177.5,187.5,187.5,462.5,2,,SBD,Raw
Hussein Noah,Iraq,M,1966,Masters 2,105,,,,,,,,,,,,,,,DQ,,SBD,Raw
Chien-Min Fu,Taiwan,M,1966,Masters 2,93,90.4,180,187.5,190,190,120,125,-130,125,200,207.5,-212.5,207.5,522.5,1,,SBD,Raw
Wai Lok Ho,Hong Kong,M,1969,Masters 2,66,63.85,110,-120,125,125,90,-100,-105,90,110,140,150,150,365,1,,SBD,Raw
Tetsuo Koike,Singapore,M,1970,Masters 2,74,73.5,162.5,172.5,-180,172.5,120,127.5,-132.5,127.5,195,210,220,220,520,1,,SBD,Raw
Zkariya Nader,Iraq,M,1971,Masters 2,120+,129.54,180,220,225,225,140,150,-152.5,150,200,-230,-230,200,575,1,,SBD,Raw
Kai-Man Leng,Hong Kong,M,1972,Masters 2,83,77.5,135,150,165,165,95,-105,-105,95,-150,150,-152.5,150,410,3,,SBD,Raw
Amarsanaa Khuujii,Mongolia,M,1972,Masters 2,74,72.93,162.5,167.5,172.5,172.5,122.5,127.5,130,130,150,160,165,165,467.5,2,,SBD,Raw
Morad Aedi,Iran,M,1972,Masters 2,83,79.4,140,155,-167.5,155,140,147.5,148,148,150,165,175,175,478,2,,SBD,Raw
Shun Kwok,Hong Kong,M,1973,Masters 2,83,80.93,167.5,180,187.5,187.5,117.5,-125,-125,117.5,237.5,252.5,-262.5,252.5,557.5,1,,SBD,Raw
Enkhbat Sanduijav,Mongolia,M,1974,Masters 1,74,72.7,170,177.5,185,185,110,117.5,125,125,170,190,210,210,520,1,,SBD,Raw
Chandana Thilakarathna,Sri Lanka,M,1975,Masters 1,83,82.36,177.5,182.5,-185,182.5,97.5,-102.5,-102.5,97.5,212.5,217.5,220,220,500,2,,SBD,Raw
Hiran Fernando,Sri Lanka,M,1975,Masters 1,93,92.15,225,235,240,240,120,125,127.5,127.5,200,215,220,220,587.5,1,,SBD,Raw
Yiu Fai Lin,Hong Kong,M,1976,Masters 1,59,58.62,145,150,-155,150,95,-100,100,100,170,180,-190,180,430,1,,SBD,Raw
Yoichi Sasaki,Japan,M,1976,Masters 1,105,95.24,180,200,-220,200,110,120,125,125,200,215,225,225,550,3,,SBD,Raw
Azzaya Nyamaa,Mongolia,M,1977,Masters 1,83,82.69,192.5,202.5,-207.5,202.5,122.5,127.5,130,130,240,-252.5,-252.5,240,572.5,1,,SBD,Raw
Yohei Yamada,Japan,M,1978,Masters 1,93,87.25,155,165,170,170,120,125,130,130,180,190,-202.5,190,490,3,,SBD,Raw
Pete Bevington,New Zealand,M,1979,Masters 1,105,104.67,250,262.5,-272.5,262.5,145,152.5,162.5,162.5,245,255,-260,255,680,1,,SBD,Raw
More Rohan,India,M,1979,Masters 1,93,87.9,180,192.5,200,200,-110,115,120,120,190,202.5,215,215,535,2,,SBD,Raw
Odon Bayaraa,Mongolia,M,1980,Masters 1,66,64.39,177.5,-187.5,-190,177.5,125,-135,135,135,210,235,-247.5,235,547.5,2,,SBD,Raw
Farid Jahanipour,Iran,M,1981,Masters 1,120,107.9,220,240,-255,240,150,-162.5,-162.5,150,220,235,-250,235,625,1,,SBD,Raw
Otgondalai Tsend-Ayush,Mongolia,M,1981,Open,93,92.05,255,265,275,275,192.5,200,-207.5,200,235,-245,245,245,720,3,,SBD,Raw
Enkhnasan Purevjav,Mongolia,M,1982,Masters 1,105,99.48,180,200,210,210,170,180,-185,180,180,195,205,205,595,2,,SBD,Raw
Hin Tat Tin,Hong Kong,M,1982,Masters 1,66,65.45,175,180,-185,180,100,102.5,-105,102.5,180,192.5,200,200,482.5,3,,SBD,Raw
Aibar Yerzhanov,Kazakhstan,M,1982,Masters 1,120+,129.69,190,210,230,230,190,200.5,206,206,200,215,230,230,666,1,,SBD,Raw
Batzul Shagdarsuren,Mongolia,M,1982,Open,120,119.3,280,292.5,300,300,190,-200,-200,190,260,275,-290,275,765,3,,SBD,Raw
Ying Hang Li,Hong Kong,M,1983,Masters 1,66,65.12,200,210,-212.5,210,120,122.5,-125,122.5,215,220,227.5,227.5,560,1,,SBD,Raw
Vyacheslav Tsoy,Kazakhstan,M,1984,Open,105,98.69,240,-250,-250,240,225,228,-230,228,260,270,-275,270,738,3,,SBD,Raw
Jaafar Humairi,Iraq,M,1986,Open,105,100.74,245,265,-270,265,155,162.5,-167.5,162.5,250,260,-270,260,687.5,6,,SBD,Raw
Tsun Sang Au Yeung,Hong Kong,M,1986,Open,59,57.59,175,-190,-190,175,85,92.5,97.5,97.5,-175,195,-205,195,467.5,3,,SBD,Raw
Ransilu Jayathilaka,Sri Lanka,M,1986,Open,120,118.46,245,255,260,260,130,137.5,-140,137.5,307.5,315,322.5,322.5,720,5,,SBD,Raw
Uvindu Jayasinghe,Sri Lanka,M,1988,Open,105,103.46,257.5,267.5,275,275,-157.5,165,-170,165,277.5,287.5,-300,287.5,727.5,4,,SBD,Raw
Haiquan Li,China,M,1988,Open,66,65.05,170,180,187.5,187.5,105,110,-117.5,110,182.5,-190,-190,182.5,480,6,,SBD,Raw
Han Pin Yeoh,Malaysia,M,1989,Open,74,72.95,222.5,230,-237.5,230,147.5,152.5,155,155,265,275,-287.5,275,660,1,,SBD,Raw
Mohammed Al Zaidi,Iraq,M,1989,Open,120+,150.76,280,310,330,330,170,185,200,200,280,290,-300,290,820,2,,SBD,Raw
Acton McKenley,Hong Kong,M,1989,Open,83,82.14,240,250,252.5,252.5,127.5,135,140,140,260,275,295,295,687.5,4,,SBD,Raw
Ka Tsun Yuen,Hong Kong,M,1990,Open,74,72.1,200,210,-212.5,210,105,112.5,,112.5,200,215,-222.5,215,537.5,6,,SBD,Raw
Hayder Abuosayabi,Iraq,M,1990,Open,120+,153.53,290,310,322.5,322.5,175,190,-192.5,190,280,290,-310,290,802.5,3,,SBD,Raw
Ahmed Al-Masslawi,Iraq,M,1990,Open,66,65.44,160,170,180,180,115,122.5,127.5,127.5,180,200,-210,200,507.5,5,,SBD,Raw
Gardiner Whiteside,Fiji,M,1991,Open,120,117.9,270,285,292.5,292.5,155,160,165,165,260,280,295,295,752.5,4,,SBD,Raw
Dmitriy Li,Kazakhstan,M,1991,Open,120,118.46,285,295,305,305,220,227.5,232.5,232.5,280,-300,300,300,837.5,1,,SBD,Raw
Askar Turysbekov,Kazakhstan,M,1991,Open,105,99.53,270,280,287.5,287.5,170,177.5,185,185,270,280,-287.5,280,752.5,2,,SBD,Raw
Mohammad Najzi,Iraq,M,1991,Open,74,73.8,190,205,-210,205,125,135,-140,135,215,-225,-225,215,555,5,,SBD,Raw
Naoaki Hayashi,Japan,M,1991,Open,105,103.77,225,237.5,245,245,152.5,160,-162.5,160,280,300,-307.5,300,705,5,,SBD,Raw
Daiki Matsusita,Japan,M,1991,Open,105,103.34,300,321,-330.5,321,175,185,-190,185,-275,275,-302.5,275,781,1,,SBD,Raw
Renwar Hama,Iraq,M,1991,Open,120,116.7,260,290,-307.5,290,-212.5,212.5,-215,212.5,280,285,-290,285,787.5,2,,SBD,Raw
Singh Ansu,India,M,1992,Open,83,82.95,240,265,-272.5,265,125,135,142.5,142.5,265,282.5,-292.5,282.5,690,3,,SBD,Raw
Atmaram Lanjekar Rajesh,India,M,1992,Open,83,81.99,265,277.5,-282.5,277.5,160,167.5,175,175,240,260,270,270,722.5,2,,SBD,Raw
Sackaharagha S.kushanthan,Sri Lanka,M,1993,Open,120+,154.46,-310,325,-350,325,175,185,-192.5,185,-260,260,-295,260,770,4,,SBD,Raw
Ulan Anuar,Kazakhstan,M,1993,Open,93,92.2,260,275,282.5,282.5,160,172.5,-182.5,172.5,260,285,-307.5,285,740,2,,SBD,Raw
Kwan Chak Law,Hong Kong,M,1993,Open,93,92.85,-255,260,-270,260,165,170,-175,170,275,-277.5,282.5,282.5,712.5,4,,SBD,Raw
Shu Ping Calvin Lam,Hong Kong,M,1993,Open,83,82.94,180,192.5,205,205,115,-120,122.5,122.5,212.5,225,-240,225,552.5,7,,SBD,Raw
Chien-Ho Jack Tsai,Singapore,M,1994,Open,74,73.08,190,200,205,205,112.5,120,-122.5,120,240,250,255,255,580,3,,SBD,Raw
Tianyu Xiao,China,M,1995,Open,83,80.53,255,-260,-260,255,150,-155,,150,280,-290,-290,280,685,5,,SBD,Raw
Ong Wei Chaai,Singapore,M,1995,Open,66,65.53,215,227.5,-235,227.5,122.5,130,132.5,132.5,265,275,-282.5,275,635,1,,SBD,Raw
Tharen Kander,Australia,M,1995,Open,66,65.28,165,175,180,180,115,120,125,125,225,235,237.5,237.5,542.5,3,,SBD,Raw
Wong Kang Wei Isaac,Singapore,M,1996,Open,59,58.65,155,162.5,167.5,167.5,132.5,137.5,-142.5,137.5,197.5,210,-220,210,515,2,,SBD,Raw
Wesley Foo,Singapore,M,1996,Open,66,65.78,200,-212.5,212.5,212.5,112.5,120,125,125,230,247.5,-255,247.5,585,2,,SBD,Raw
Koki Yonechi,Japan,M,1996,Open,74,73.84,200,207.5,210,210,157.5,162.5,167.5,167.5,255,272.5,-285,272.5,650,2,,SBD,Raw
Hsin-Mu Hsieh,Taiwan,M,1996,Open,59,58.44,185,195,202.5,202.5,125,130,135,135,200,212.5,217.5,217.5,555,1,,SBD,Raw
Jarryl Shao Gang Lim,Singapore,M,1996,Open,93,90.25,205,215,222.5,222.5,145,155,-160,155,260,275,282.5,282.5,660,5,,SBD,Raw
Hud Syafiq Herman,Singapore,M,1996,Open,93,92.15,195,205,215,215,160,167.5,175,175,220,235,240,240,630,6,,SBD,Raw
Cornelius Tang,Singapore,M,1996,Open,83,80.45,230,240,250,250,130,135,-140,135,275,290,-300,290,675,6,,SBD,Raw
Timothy Monigatti,New Zealand,M,1996,Open,83,77.59,262.5,275,285,285,155,160,165,165,300,315,320,320,770,1,,SBD,Raw
Shimon Tsuruya,Japan,M,1997,Open,93,91.3,260,275,287.5,287.5,155,162.5,165,165,285,305,-327.5,305,757.5,1,,SBD,Raw
Samuel Shee Dao Sen,Singapore,M,1997,Open,105,104.15,205,217.5,225,225,170,-177.5,-177.5,170,247.5,257.5,-262.5,257.5,652.5,7,,SBD,Raw
Pei-Yu Wang,Taiwan,M,1998,Open,120+,144.48,340,360,375,375,185,205,-222.5,205,310,350.5,-360,350.5,930.5,1,,SBD,Raw
Cheuk Nang Lau,Hong Kong,M,1998,Open,74,72.57,205,207.5,217.5,217.5,117.5,-122.5,-122.5,117.5,215,225,-240,225,560,4,,SBD,Raw
Tsz Lik Leung,Hong Kong,M,1999,Open,66,64.88,175,185,-190,185,120,-127.5,127.5,127.5,190,210,227.5,227.5,540,4,,SBD,Raw
Haoruo Zhang,China,M,2000,Juniors,93,92.6,225,237.5,245,245,182.5,-195.5,195.5,195.5,225,250,267.5,267.5,708,2,,SBD,Raw
Clement How,Singapore,M,2000,Juniors,83,80.79,210,220,225,225,125,132.5,140,140,265,280,-300,280,645,2,,SBD,Raw
Mendis G.mendis,Sri Lanka,M,2000,Juniors,74,72.07,-225,225,240,240,110,115,-120,115,220,240,-250,240,595,3,,SBD,Raw
Lucas Spencer Chan,Singapore,M,2000,Juniors,83,80.54,220,232.5,240,240,147.5,155,160,160,260,280,287.5,287.5,687.5,1,,SBD,Raw
Sheung Wai Chung,Hong Kong,M,2000,Juniors,74,73.47,242.5,-252.5,-252.5,242.5,-180,-180,180,180,235,-250,250,250,,DQ,,SBD,Raw
Yoshiaki Saito,Japan,M,2000,Juniors,66,63.86,140,150,162.5,162.5,90,97.5,102.5,102.5,195,205,215,215,480,3,,SBD,Raw
Pramod P.k Fernando,Sri Lanka,M,2001,Juniors,120+,122.8,240,255,-270,255,135,140,-150,140,-280,280,282.5,282.5,677.5,2,,SBD,Raw
Jian Rong Tang,Singapore,M,2001,Juniors,74,72.94,195,210,217.5,217.5,115,122.5,127.5,127.5,232.5,250,252.5,252.5,597.5,2,,SBD,Raw
Raffy Dio,New Zealand,M,2001,Juniors,93,92.55,250,260,265,265,152.5,157.5,160,160,270,-280,-285,270,695,3,,SBD,Raw
Yuk Lam Li,Hong Kong,M,2001,Juniors,59,57.73,200,213,-217.5,213,-100,100,-102.5,100,200,215,225,225,538,1,,SBD,Raw
Mohammed Abdulameer,Iraq,M,2001,Juniors,120,106.29,210,240,260,260,110,125,140,140,210,250,270,270,670,1,,SBD,Raw
Mohammed Jihad,Iraq,M,2001,Juniors,120+,120.46,250,270,280,280,135,155,162.5,162.5,250,280,300,300,742.5,1,,SBD,Raw
Mohammed Abdulshaheed,Iraq,M,2001,Juniors,105,98.93,260,275,282.5,282.5,147.5,152.5,-157.5,152.5,255,265,-277.5,265,700,2,,SBD,Raw
Chin Lam Cheung,Hong Kong,M,2001,Juniors,74,73.89,230,245,-260,245,120,127.5,135,135,245,260,275,275,655,1,,SBD,Raw
Yu-Chan Chien,Taiwan,M,2001,Juniors,93,92.8,250,265,-280,265,142.5,150,155,155,290,305,311.5,311.5,731.5,1,,SBD,Raw
Kwok Hei Lui,Hong Kong,M,2002,Juniors,105,94.68,235,-250,-250,235,130,140,-145,140,235,252.5,260,260,635,3,,SBD,Raw
Peter Paul Obatay,Singapore,M,2002,Juniors,93,91.75,220,230,-240,230,115,120,122.5,122.5,242.5,255,262.5,262.5,615,4,,SBD,Raw
Sajjad Sarray,Iraq,M,2002,Juniors,59,58.45,155,165,170,170,100,-105,-112.5,100,200,-210,-212.5,200,470,2,,SBD,Raw
Kin Hei William Li,Hong Kong,M,2002,Juniors,66,65.59,190,200,210,210,100,110,-112.5,110,210,220,-227.5,220,540,1,,SBD,Raw
Naktal Majeed,Iraq,M,2002,Juniors,59,57.32,-160,160,-167.5,160,95,102.5,110,110,-190,190,-210,190,460,3,,SBD,Raw
Wayne Chong,Singapore,M,2004,Juniors,105,102.54,247.5,-265,267.5,267.5,157.5,165,170,170,262.5,275,280,280,717.5,1,,SBD,Raw
Adesha Rodrigo,Sri Lanka,M,2004,Juniors,66,64.45,100,120,135,135,70,-85,-85,70,145,165,170,170,375,4,,SBD,Raw
Aymen Khfaji,Iraq,M,2004,Juniors,66,64.43,162.5,-172.5,172.5,172.5,102.5,107.5,110,110,200,215,-225,215,497.5,2,,SBD,Raw
Ali Al-Rubaye,Iraq,M,2005,Sub-Juniors,105,102.19,200,-220,220,220,-157.5,157.5,165.5,165.5,200,225,-235,225,610.5,1,,SBD,Raw
Jevan Sia,Singapore,M,2005,Sub-Juniors,83,81.68,157.5,165,172.5,172.5,115,120,122.5,122.5,160,165,170,170,465,2,,SBD,Raw
Nikki Goh,Singapore,M,2005,Sub-Juniors,74,73.45,172.5,182.5,190,190,105,110,112.5,112.5,225,235,245,245,547.5,1,,SBD,Raw
Michael van Beek,South Africa,M,2005,Sub-Juniors,83,81.63,152.5,162.5,170,170,87.5,92.5,-97.5,92.5,180,190,-202.5,190,452.5,3,,SBD,Raw
Hasan Al-Abboodi,Iraq,M,2005,Sub-Juniors,74,72.98,145,157.5,162.5,162.5,105,110,112.5,112.5,205,215,220,220,495,3,,SBD,Raw
Jasper Tan,Singapore,M,2005,Sub-Juniors,74,72.96,172.5,180,-185,180,100,-105,105,105,225,235,245,245,530,2,,SBD,Raw
Taiki Okuda,Japan,M,2005,Sub-Juniors,83,81.98,175,185,-190,185,110,-117.5,-117.5,110,190,-200,-205,190,485,1,,SBD,Raw
Shao Feng Yap,Hong Kong,M,2005,Sub-Juniors,93,89.98,-160,160,180,180,100,105,-107.5,105,190,-220,-220,190,475,3,,SBD,Raw
Wei-Chen Huang,Taiwan,M,2005,Sub-Juniors,59,56.88,160,170,175,175,90,-97.5,-97.5,90,190,205,218,218,483,1,,SBD,Raw
Amer Hur,Iraq,M,2005,Sub-Juniors,105,103.43,170,200,210,210,80,92.5,-97.5,92.5,220,230,240,240,542.5,3,,SBD,Raw
Yung-Chin Huang,Taiwan,M,2005,Sub-Juniors,120,113.74,250,270,275,275,130,145,155,155,255,-277.5,-277.5,255,685,1,,SBD,Raw
Irfan Afiq,Singapore,M,2005,Sub-Juniors,120,107.02,180,187.5,-192.5,187.5,95,102.5,105,105,200,207.5,215,215,507.5,2,,SBD,Raw
Sulesh S. Mendis,Sri Lanka,M,2005,Sub-Juniors,105,103.25,165,175,200,200,135,145,-150,145,200,220,232.5,232.5,577.5,2,,SBD,Raw
Rozmatkhozha Tursynbayev,Kazakhstan,M,2005,Sub-Juniors,66,65.11,145,157.5,-167.5,157.5,105,112.5,120,120,170,180,190,190,467.5,2,,SBD,Raw
Kenji Okamura,Japan,M,2005,Sub-Juniors,93,90.95,190,210,-225,210,120,130,135,135,200,215,222.5,222.5,567.5,1,,SBD,Raw
Ryan Danial Ei'zir,Singapore,M,2005,Sub-Juniors,105,97.2,160,170,177.5,177.5,90,97.5,102.5,102.5,160,175,185,185,465,4,,SBD,Raw
Deen Hadif Mohammad Noh,Singapore,M,2005,Sub-Juniors,93,91.7,165,175,180,180,97.5,102.5,107.5,107.5,200,210,220,220,507.5,2,,SBD,Raw
Panmei Gaihutlung,India,M,2006,Sub-Juniors,53,52.38,90,110,-130,110,60,70,75,75,140,-150,-150,140,325,1,,SBD,Raw
Soya Ishihara,Japan,M,2006,Sub-Juniors,74,72.73,175,177.5,-190,177.5,85,92.5,-97.5,92.5,180,200,-215,200,470,4,,SBD,Raw
Wade Castro,Singapore,M,2006,Sub-Juniors,66,64.61,155,165,172.5,172.5,110,117.5,122.5,122.5,220,232.5,238,238,533,1,,SBD,Raw
Mahdi Al-Rikabi,Iraq,M,2006,Sub-Juniors,120+,124.34,140,160,175,175,-80,80,100,100,150,190,-210,190,465,1,,SBD,Raw
You Xu Shi,Hong Kong,M,2007,Sub-Juniors,66,64.53,90,-100,100,100,55,62.5,70,70,100,120,140,140,310,3,,SBD,Raw
Ching Wing Shi,Hong Kong,M,2007,Sub-Juniors,105,93.26,120,130,140,140,75,80,-85,80,135,145,155,155,375,5,,SBD,Raw
Ali Al-Sreiwe,Iraq,M,2007,Sub-Juniors,59,57.09,110,120,-130,120,60,72.5,82.5,82.5,160,170,180,180,382.5,2,,SBD,Raw
Hai Bin Diao,Hong Kong,M,2007,Sub-Juniors,74,73.17,70,80,-95,80,40,45,-50,45,90,100,-115,100,225,5,,SBD,Raw
Kim-Won Pok,Hong Kong,M,1940,Masters 4,59,50.82,65,75,85,85,45,50,-52.5,50,85,105,110,110,245,1,,SBD,Single-ply
Daribay Ospanov,Kazakhstan,M,1949,Masters 4,83,82.56,-120,120,140,140,140,150,-160,150,130,150,160,160,450,1,,SBD,Single-ply
Chien-Lih Hwang,Taiwan,M,1953,Masters 4,93,83.1,120.5,122.5,141,141,-126,126,131,131,110,136,,136,408,1,,SBD,Single-ply
Gable Wang,Hong Kong,M,1959,Masters 3,83,77,-85,85,,85,80,85,90,90,135,145,,145,320,1,,SBD,Single-ply
Li-Hsin Liu,Taiwan,M,1966,Masters 2,74,70.34,80,100,110,110,50,60,65,65,100,130,140,140,315,2,,SBD,Single-ply
Kai-Man Leng,Hong Kong,M,1972,Masters 2,83,78.66,130,150,,150,115,130,,130,130,165,180,180,460,1,,SBD,Single-ply
Amarsanaa Khuujii,Mongolia,M,1972,Masters 2,74,73.71,150,-155,160,160,110,150,160,160,140,150,160,160,480,1,,SBD,Single-ply
Balgovind Tiwari,India,M,1972,Masters 2,93,91.08,240,265,-275,265,135,145,150,150,200,217.5,235,235,650,1,,SBD,Single-ply
Enkhbat Sanduijav,Mongolia,M,1974,Masters 1,74,71.55,170,200,220,220,100,150,160,160,190,-210,220,220,600,1,,SBD,Single-ply
Uuganbayar Damdin,Mongolia,M,1976,Masters 1,105,102.35,250,,,250,210,-230,,210,200,225,235,235,695,1,,SBD,Single-ply
Damdinbat Nanjid,Mongolia,M,1976,Masters 1,83,81.07,170,190,,190,120,160,170,170,170,180,200,200,560,1,,SBD,Single-ply
Chih-Hao Chen,Taiwan,M,1978,Masters 1,93,87.7,160,185,192.5,192.5,170,182.5,190,190,160,185,-192.5,185,567.5,1,,SBD,Single-ply
Shui Lun Andrew Yu,Hong Kong,M,1980,Masters 1,83,74.4,125,130,140,140,80,87.5,90,90,125,127.5,-185,127.5,357.5,2,,SBD,Single-ply
Aibar Yerzhanov,Kazakhstan,M,1982,Masters 1,120+,128.76,220,235,255,255,-210,-210,-210,,180,,,180,,DQ,,SBD,Single-ply
Batsukh Damdinsuren,Mongolia,M,1984,Open,74,73.92,250,-260,-260,250,160,175,-180,175,200,215,222.5,222.5,647.5,1,,SBD,Single-ply
Byambasuren Bayarsaikhan,Mongolia,M,1985,Open,105,102.02,-320,-320,320,320,-285,285,-305,285,255,275,285,285,890,2,,SBD,Single-ply
Vassiliy Petrenko,Kazakhstan,M,1985,Open,93,85.67,-260,260,270,270,165,175,182.5,182.5,240,250,-260,250,702.5,2,,SBD,Single-ply
Abdukarim Tulegenov,Kazakhstan,M,1986,Open,83,82.33,240,260,-275,260,150,160,165,165,250,270,275,275,700,2,,SBD,Single-ply
Galsaikhan Myagmarsuren,Mongolia,M,1988,Open,105,100.93,340,-360,360,360,245,-260,260,260,280,300,-307.5,300,920,1,,SBD,Single-ply
Tserennadmid Munkhbayar,Mongolia,M,1990,Open,120+,130.1,-270,270,300,300,220,235,-250,235,250,270,-300,270,805,1,,SBD,Single-ply
Wei-Chun Wu,Taiwan,M,1990,Open,93,92.07,300,320,-340,320,240,255,265,265,250,277.5,-285,277.5,862.5,1,,SBD,Single-ply
Alexandr Emchenko,Kazakhstan,M,1990,Open,93,87.7,180,200,,200,-200,200,220,220,180,200,,200,620,3,,SBD,Single-ply
Askar Turysbekov,Kazakhstan,M,1991,Open,105,99.87,250,,,250,190,,,190,250,280,,280,720,3,,SBD,Single-ply
Pui Sing Yuen,Hong Kong,M,1992,Open,83,82.97,140,160,,160,210,-230,-265.5,210,160,180,200,200,570,3,,SBD,Single-ply
Singh Ansu,India,M,1992,Open,83,83,300,327.5,-338,327.5,160,170,-175,170,275,302.5,315,315,812.5,1,,SBD,Single-ply
Po-Wen Feng,Taiwan,M,1992,Open,66,64.89,255,270,280,280,165,175,,175,235,-250,-250,235,690,1,,SBD,Single-ply
Davut Abduraimov,Kazakhstan,M,1995,Open,120,107.14,250,-265,265,265,100,170,185,185,180,200,220,220,670,1,,SBD,Single-ply
Mohammadreza Bavandi,Iran,M,2000,Juniors,120+,161.96,250,300,-330,300,120,145,-160,145,215,230,-255,230,675,1,,SBD,Single-ply
Zhamshid Yuldashbekov,Kazakhstan,M,2001,Juniors,59,58.49,130,140,150,150,90,100,110,110,150,160,170,170,430,1,,SBD,Single-ply
Chih-Hung Hsieh,Taiwan,M,2001,Juniors,105,100.05,-340,340,-370,340,205,-215,215,215,265,272.5,,272.5,827.5,1,,SBD,Single-ply
Ivan Kuvaldin,Kazakhstan,M,2001,Open,59,58.29,120,135,-150,135,115,160,170,170,120,135,-145,135,440,1,,SBD,Single-ply
Khussan Artukmatov,Kazakhstan,M,2001,Open,74,73,215,225,-240,225,160,170,-175,170,190,205,-215,205,600,2,,SBD,Single-ply
Yu-Cheng Wang,Taiwan,M,2001,Juniors,66,65.47,-220,-220,220,220,140,150,152.5,152.5,220,-240,240,240,612.5,1,,SBD,Single-ply
Ybyray Kamal,Kazakhstan,M,2003,Juniors,66,65.9,200,220,230,230,130,140,152.5,152.5,200,212.5,-232.5,212.5,595,2,,SBD,Single-ply
Uuganbayar Munkhbayar,Mongolia,M,2003,Juniors,66,64.71,195,205,-212.5,205,-140,-140,140,140,180,190,-200,190,535,3,,SBD,Single-ply
Erkhemjargal Byambatugs,Mongolia,M,2004,Juniors,93,90.46,240,255,270,270,-150,-150,150,150,240,-260,-260,240,660,1,,SBD,Single-ply
Sodbaatar Byambajargal,Mongolia,M,2004,Juniors,83,81.78,260,-280,-280,260,160,180,-200,180,240,-250,-250,240,680,1,,SBD,Single-ply
Sunnatbek Bekmetov,Kazakhstan,M,2005,Sub-Juniors,74,72.04,150,160,170,170,105,115,125,125,160,180,200,200,495,1,,SBD,Single-ply
Rozmatkhozha Tursynbayev,Kazakhstan,M,2005,Sub-Juniors,66,64.88,160,170,180,180,140,150,155,155,160,180,200,200,535,1,,SBD,Single-ply
Shao-Kui Yan,Taiwan,M,2007,Sub-Juniors,93,87.29,-250,-250,-250,,140,152.5,157.5,157.5,210,225,-230,225,,DQ,,SBD,Single-ply
Guan-Ting Ke,Taiwan,M,2007,Sub-Juniors,120+,129.34,290,325,335,335,170,177.5,182.5,182.5,225,246.5,-255,246.5,764,1,,SBD,Single-ply
Ibemhal Devi Takhelchangbam,India,F,1957,Masters 3,57,53.64,25,28,-35,28,-25,25,-28,25,45,50,55,55,108,1,,SBD,Raw
Tsai-Wei Lee,Taiwan,F,1961,Masters 3,69,66.91,-95,95,100.5,100.5,45,50.5,-52.5,50.5,100,110,116,116,267,1,,SBD,Raw
Lai Ling Lee,Hong Kong,F,1963,Masters 3,52,50.71,45,55,65,65,55,60.5,-63,60.5,65,70,85,85,210.5,1,,SBD,Raw
Shu-Min Tsai,Taiwan,F,1967,Masters 2,47,45.25,80,-90,-90,80,-40,40,42.5,42.5,100,-110,110,110,232.5,1,,SBD,Raw
Marina Altaibaeva,Kazakhstan,F,1973,Open,84+,116.72,65,70,72.5,72.5,50,52.5,55,55,80,90,97.5,97.5,225,3,,SBD,Raw
Chia-Chi Chi,Taiwan,F,1975,Masters 1,69,64.69,70,80,-85,80,72.5,77.5,80,80,115,130,142.5,142.5,302.5,3,,SBD,Raw
Puranik Manjushri,India,F,1976,Masters 1,84,82.67,125,133,135,135,50,55,-57.5,55,127.5,132.5,-140,132.5,322.5,2,,SBD,Raw
Mehta Neeta,India,F,1977,Masters 1,52,49.5,97.5,105,-107.5,105,52.5,57.5,-60,57.5,125,-132.5,-132.5,125,287.5,4,,SBD,Raw
Sima Dutta Chatterjee,India,F,1977,Masters 1,69,67.65,60,-72.5,-82.5,60,50,55,-57.5,55,100,117.5,-132.5,117.5,232.5,5,,SBD,Raw
Harumi Ito,Japan,F,1978,Masters 1,69,68,105,110,115,115,55,60,-65,60,132.5,145,152.5,152.5,327.5,1,,SBD,Raw
Noor Shakira Zainudin,Singapore,F,1979,Masters 1,69,67.21,72.5,80,82.5,82.5,45,50,-52.5,50,102.5,110,115,115,247.5,4,,SBD,Raw
Chih-Ying Huang,Taiwan,F,1979,Masters 1,47,46.38,55,65,70,70,-30,30,35,35,85,95,100,100,205,1,,SBD,Raw
Olivia Lannon,Australia,F,1980,Masters 1,76,71.47,120,127.5,-132.5,127.5,65,70,-72.5,70,145,155,-170,155,352.5,3,,SBD,Raw
Jielin Quak,Singapore,F,1981,Masters 1,52,50.74,67.5,-75,75,75,37.5,40,-42.5,40,100,107.5,112.5,112.5,227.5,5,,SBD,Raw
Janice Yap,Singapore,F,1981,Masters 1,52,50.33,95,102.5,105,105,42.5,45,47.5,47.5,122.5,130,137.5,137.5,290,3,,SBD,Raw
Sara Surtees,New Zealand,F,1981,Masters 1,52,50.34,127.5,135,138,138,57.5,63,65.5,65.5,145,153,156,156,359.5,1,,SBD,Raw
Yunie Yang,Singapore,F,1981,Masters 1,84,83.09,120,127.5,-133.5,127.5,75,80.5,82.5,82.5,160,170,-175,170,380,1,,SBD,Raw
Munkhzul Sodnomdorj,Mongolia,F,1981,Masters 1,76,75.31,132.5,142.5,-150,142.5,65,70,75,75,140,150,170,170,387.5,1,,SBD,Raw
Mahapatra Bharati,India,F,1981,Masters 1,84+,95.55,-90,-95,95,95,55,57.5,-60,57.5,100,110,120,120,272.5,2,,SBD,Raw
Rozana Abdul Razak,Singapore,F,1981,Masters 1,84+,95.68,117.5,125,130,130,47.5,50,-52.5,50,147.5,158,165.5,165.5,345.5,1,,SBD,Raw
McCombie Jenifer,Hong Kong,F,1982,Masters 1,57,55.3,92.5,-97.5,-97.5,92.5,72.5,76.5,80,80,145,157.5,160,160,332.5,2,,SBD,Raw
Imandar Dr. Sharvari,India,F,1983,Masters 1,57,54.74,122.5,130.5,133.5,133.5,65,70,72.5,72.5,142.5,152.5,157.5,157.5,363.5,1,,SBD,Raw
Emily Spensley,Hong Kong,F,1983,Open,63,62.6,112.5,117.5,120,120,57.5,65,-70,65,150,155,160,160,345,4,,SBD,Raw
Thao Pham,Australia,F,1983,Masters 1,52,51.09,95,102.5,107.5,107.5,60,65,67.5,67.5,130,142.5,-147.5,142.5,317.5,2,,SBD,Raw
Carolina Dillen,New Zealand,F,1983,Masters 1,63,62.6,153,161.5,164,164,88,90,-91,90,182.5,190,192.5,192.5,446.5,1,,SBD,Raw
Hemant Kamble Mayani,India,F,1983,Masters 1,76,71.81,130,135,142.5,142.5,70,77.5,-82.5,77.5,145,152.5,162.5,162.5,382.5,2,,SBD,Raw
Norliyana Jumahat,Singapore,F,1983,Masters 1,69,67.85,100,110,115,115,47.5,50,52.5,52.5,125,132.5,140,140,307.5,2,,SBD,Raw
Nopparat Rerkpisut,Thailand,F,1984,Open,57,54.37,95,102.5,-110,102.5,45,47.5,50,50,147.5,157.5,-160,157.5,310,5,,SBD,Raw
Mayumi Honda,Japan,F,1984,Open,63,61.61,110,120,125,125,65,-70,70,70,135,-150,150,150,345,3,,SBD,Raw
Ekaterina Kryukova,Kazakhstan,F,1985,Open,63,62.48,115,-120,120,120,100,105,107.5,107.5,120,130,137.5,137.5,365,2,,SBD,Raw
Elham Salimiyan Rizi,Iran,F,1986,Open,76,75.37,150,160,-165,160,70,80,87.5,87.5,160,175,197.5,197.5,445,2,,SBD,Raw
Xeniya Khan,Kazakhstan,F,1987,Open,76,74.91,120,127.5,135,135,110,117.5,122.5,122.5,130,150,165,165,422.5,3,,SBD,Raw
Shashika Epitawala,Sri Lanka,F,1988,Open,84,77.45,110,120,130,130,50,57.5,-65,57.5,125,135,-145,135,322.5,2,,SBD,Raw
Tiffany Ng,Singapore,F,1988,Open,63,61.95,112.5,117.5,122.5,122.5,82.5,87.5,90,90,132.5,142.5,152.5,152.5,365,1,,SBD,Raw
Hui-Ling Fang,Taiwan,F,1989,Open,47,46.82,105,-110,-115,105,57.5,60,-62.5,60,140,145,-150,145,310,1,,SBD,Raw
Jiaojiao Xu,China,F,1989,Open,84,82.83,185,-200.5,-200.5,185,105,107.5,110,110,-185,185,-197.5,185,480,1,,SBD,Raw
Qi Zhan,Hong Kong,F,1989,Open,52,51.41,55,60,62.5,62.5,32.5,35,-37.5,35,85,87.5,90,90,187.5,3,,SBD,Raw
Riria Ropata,New Zealand,F,1989,Open,84+,133.28,215,225,230,230,117.5,125,-130,125,240,247.5,-252.5,247.5,602.5,1,,SBD,Raw
Kaely Wararatchai,Thailand,F,1990,Open,57,55.29,112.5,120,-125,120,72.5,77.5,-80,77.5,145,152.5,157.5,157.5,355,2,,SBD,Raw
Kristina Tsoy,Kazakhstan,F,1991,Open,47,46.32,-105,-105,105,105,60,65,67.5,67.5,-120,120,-125,120,292.5,2,,SBD,Raw
Shahla Ghahremani,Iran,F,1992,Open,69,68.08,145,152.5,162.5,162.5,70,77.5,85,85,160,170,-177.5,170,417.5,1,,SBD,Raw
Joyce Gail Reboton,Philippines,F,1992,Open,76,75.44,190,197.5,-203.5,197.5,95,100,-102.5,100,190,197.5,,197.5,495,1,,SBD,Raw
Catherine Shon,New Zealand,F,1992,Open,57,57,142.5,147.5,152.5,152.5,75,77.5,-82.5,77.5,167.5,-175,-175,167.5,397.5,1,,SBD,Raw
Sze Hei Chan,Hong Kong,F,1993,Open,76,71.58,90,-92.5,95,95,40,45,50,50,115,122.5,130,130,275,4,,SBD,Raw
Yuk Ling Chan,Hong Kong,F,1994,Open,47,46.43,110,115,-120,115,50,-55,-55,50,120,-130,-135,120,285,3,,SBD,Raw
Amilia Koh,Singapore,F,1995,Open,57,56.32,102.5,110,-115,110,45,50,-52.5,50,147.5,160,-170,160,320,4,,SBD,Raw
Yim Chee Liang,Hong Kong,F,1995,Open,69,67.67,110,115,120,120,60,65,-72.5,65,130,140,-150,140,325,3,,SBD,Raw
Wing Hin Yuen,Hong Kong,F,1995,Open,63,60.08,105,115,-122.5,115,45,52.5,55,55,125,135,-150,135,305,6,,SBD,Raw
Rasitha Silva,Sri Lanka,F,1996,Open,52,51.69,90,100,105,105,40,45,47.5,47.5,115,125,130,130,282.5,2,,SBD,Raw
Claudia Lee,Singapore,F,1996,Open,63,62.75,97.5,105,107.5,107.5,65,-70,-70,65,145,157.5,-162.5,157.5,330,5,,SBD,Raw
Abhay Raut Shrutika,India,F,1996,Open,84+,105.89,190,-202.5,-202.5,190,95,-102.5,-102.5,95,150,170,-190,170,455,2,,SBD,Raw
Chia-Yu Cho,Taiwan,F,1997,Open,52,51.65,125,143,145,145,50,55,57.5,57.5,150,162.5,-167.5,162.5,365,1,,SBD,Raw
Su Xia Tay,Singapore,F,1997,Open,57,55.69,107.5,115,-120,115,60,65,-67.5,65,140,147.5,-152.5,147.5,327.5,3,,SBD,Raw
Veronica Manning,New Zealand,F,1999,Open,69,68.63,130,135,140,140,85,87.5,-90,87.5,165,-175,175,175,402.5,2,,SBD,Raw
Yann Lim,Singapore,F,2000,Juniors,63,60.69,110,115,122.5,122.5,70,77.5,82.5,82.5,135,145,150,150,355,1,,SBD,Raw
Ivy Kok,Singapore,F,2000,Juniors,63,61.08,107.5,112.5,120,120,47.5,50,-52.5,50,130,135,140,140,310,4,,SBD,Raw
Chun Yu Man,Hong Kong,F,2000,Juniors,47,46.35,97.5,105,-110,105,45,47.5,-52.5,47.5,135,142.5,-146,142.5,295,1,,SBD,Raw
Tantanat Ektanopokai,Thailand,F,2000,Juniors,63,60.98,92.5,100,105,105,57.5,60,62.5,62.5,162.5,-175,-183,162.5,330,3,,SBD,Raw
Natasha Yap,Singapore,F,2000,Juniors,57,56.7,112.5,117.5,125,125,65,-70,-70,65,150,157.5,165,165,355,1,,SBD,Raw
Shu Wei Lee,Malaysia,F,2000,Juniors,52,51.25,127.5,132.5,135,135,60,65,-70,65,135,145,147.5,147.5,347.5,1,,SBD,Raw
Tanya Michelle Lim,Singapore,F,2000,Juniors,76,73.68,107.5,115,-117.5,115,65,70,-72.5,70,125,132.5,137.5,137.5,322.5,2,,SBD,Raw
Radeesha D.silva,Sri Lanka,F,2001,Juniors,69,67.35,85,100,-115,100,47.5,52.5,-57.5,52.5,-90,90,110,110,262.5,3,,SBD,Raw
Chin Wai Yeung,Hong Kong,F,2002,Juniors,47,46.41,50,55,-60,55,30,-35,-35,30,75,85,90,90,175,4,,SBD,Raw
Alicia Foo,Singapore,F,2002,Juniors,47,46.76,82.5,87.5,-90,87.5,40,42.5,-45,42.5,97.5,102.5,110,110,240,3,,SBD,Raw
Jia Ying Lee,Singapore,F,2002,Juniors,69,66.23,120,127.5,135,135,70,75,77.5,77.5,127.5,137.5,-145,137.5,350,1,,SBD,Raw
Tsenguun Batsukh,Mongolia,F,2002,Juniors,63,62.89,110,117.5,125,125,75,80,-85,80,130,140,147.5,147.5,352.5,2,,SBD,Raw
Faith Suzanna Tan,Singapore,F,2003,Juniors,47,46.84,90,95,100,100,42.5,45,47.5,47.5,127.5,137.5,-146.5,137.5,285,2,,SBD,Raw
Jyothi M,India,F,2003,Juniors,43,41.41,40,52.5,-60,52.5,25,27.5,-32.5,27.5,70,85,-97.5,85,165,1,,SBD,Raw
Niko Huang,Singapore,F,2003,Juniors,52,51.73,90,-95,95,95,50,55,57.5,57.5,110,115,120,120,272.5,3,,SBD,Raw
Ya Qi Zhou,Hong Kong,F,2004,Juniors,63,60.35,-70,-70,70,70,30,-35,-35,30,70,-80,-80,70,170,5,,SBD,Raw
Minerva Wing Sze Tse,Hong Kong,F,2004,Juniors,69,67.13,120,130,-137.5,130,60,-67.5,-67.5,60,115,122.5,130,130,320,2,,SBD,Raw
Pei-Chen Wu,Taiwan,F,2004,Juniors,76,73.62,155.5,-162.5,-162.5,155.5,62.5,67.5,-72.5,67.5,140,152.5,-160,152.5,375.5,1,,SBD,Raw
Yuliya Bochenkova,Kazakhstan,F,2004,Juniors,52,51.83,90,97.5,100,100,62.5,67.5,-70,67.5,100,110,-115,110,277.5,2,,SBD,Raw
Shermaine Kye Tinn Yong,Singapore,F,2005,Sub-Juniors,63,57.3,105,112.5,120,120,40,45,-47.5,45,135,142.5,150,150,315,1,,SBD,Raw
Hsin-Ying Li,Taiwan,F,2005,Sub-Juniors,84+,104.39,165,-170,172.5,172.5,70,77.5,80,80,160,170,178,178,430.5,1,,SBD,Raw
Veronika Yakusheva,Kazakhstan,F,2005,Sub-Juniors,69,66.12,50,-60,65,65,40,-45,,40,65,-80,90,90,195,1,,SBD,Raw
Sin-Wei Gu,Taiwan,F,2006,Sub-Juniors,84+,121.32,170,180,-187.5,180,70,75,-80,75,145,152.5,155,155,410,2,,SBD,Raw
Viktoriya Passyuk,Kazakhstan,F,2007,Sub-Juniors,47,46.66,85,95,-100,95,-50,50,-55,50,105,-125,-125,105,250,1,,SBD,Raw
Khuslen Batkhishig,Mongolia,F,2007,Sub-Juniors,84+,94.46,100,120,,120,40,47.5,,47.5,100,120,,120,287.5,3,,SBD,Raw
Aidana Mutunova,Kazakhstan,F,2008,Sub-Juniors,57,55.49,70,80,90,90,60,70.5,72,72,80,90,100,100,262,1,,SBD,Raw
Jan Lenart,Mongolia,M,1982,Open,83,74.12,85,95,-100,95,50,55,-60,55,80,100,-120,100,250,2,,SBD,Single-ply
Amelia Wai Yu Wong,Hong Kong,F,1960,Masters 3,47,46.53,60,65,70,70,47.5,52.5,,52.5,90,-100,100,100,222.5,1,,SBD,Single-ply
Wing-Yuk Ip,Hong Kong,F,1961,Masters 3,63,61.56,60,70,80,80,52.5,57.5,60,60,80,100,110,110,250,1,,SBD,Single-ply
Marina Altaibaeva,Kazakhstan,F,1973,Open,84+,116.79,67.5,72.5,75,75,50,52.5,55,55,87.5,95,100,100,230,1,,SBD,Single-ply
Sima Dutta Chatterjee,India,F,1977,Masters 1,69,67.55,100,110,115,115,60,70,75,75,100,125,,125,315,1,,SBD,Single-ply
Munkhzul Sodnomdorj,Mongolia,F,1981,Masters 1,76,75.34,140,150,-160,150,60,70,-75,70,120,140,,140,360,1,,SBD,Single-ply
Mei-Xiang Liu,Taiwan,F,1983,Open,52,48.82,120,140,157.5,157.5,55,65,70,70,110,130,150,150,377.5,1,,SBD,Single-ply
Xeniya Khan,Kazakhstan,F,1987,Open,76,74.95,140,155,,155,100,110,,110,120,130,140,140,405,1,,SBD,Single-ply
Solongo Munkhbat,Mongolia,F,1988,Open,69,66.04,-140,140,-160,140,-85,85,-100,85,130,150,-165,150,375,1,,SBD,Single-ply
Amartsengel Batkhishig,Mongolia,F,1989,Open,69,68,180,190,200,200,80,100,107.5,107.5,170,185,197.5,197.5,,DD,,SBD,Single-ply
Zi-Xuan Lin,Taiwan,F,1991,Open,57,55.59,145,-155,-155,145,80,90,-95,90,140,150,-167.5,150,385,1,,SBD,Single-ply
Joyce Gail Reboton,Philippines,F,1992,Open,84,77.95,170,182.5,190,190,95,100,105,105,177.5,190,-200,190,485,1,,SBD,Single-ply
Nyamgerel Amgalanbaatar,Mongolia,F,2001,Juniors,52,51.94,85,100,-122.5,100,35,-45,-45,35,100,120,125,125,260,2,,SBD,Single-ply
Diana Nuriddinova,Kazakhstan,F,2001,Open,57,52.61,85,-105,105,105,55,-62.5,62.5,62.5,85,100,110,110,277.5,2,,SBD,Single-ply
Anardelger Batdalai,Mongolia,F,2002,Juniors,57,56.89,-140,140,160,160,82.5,92.5,-106,92.5,130,145,-155,145,397.5,1,,SBD,Single-ply
Yuliya Bochenkova,Kazakhstan,F,2004,Juniors,52,51.33,120,-127.5,-127.5,120,70,75,-77.5,75,95,105,120,120,315,1,,SBD,Single-ply
Veronika Yakusheva,Kazakhstan,F,2005,Sub-Juniors,69,66.01,70,80,,80,40,50,57.5,57.5,80,92.5,100,100,237.5,1,,SBD,Single-ply
Amina Karimova,Kazakhstan,F,2005,Open,63,61.98,157.5,-170,170,170,100,105,110,110,130,150,160,160,440,1,,SBD,Single-ply
Yu-Chen Kao,Taiwan,F,2005,Sub-Juniors,63,61.97,185.5,195,-202.5,195,80,-93,-93,80,155,160.5,165,165,440,1,,SBD,Single-ply
Sin-Wei Gu,Taiwan,F,2006,Sub-Juniors,84+,121.14,230,250.5,266,266,90,102.5,-108.5,102.5,160,172.5,-183,172.5,541,1,,SBD,Single-ply
Viktoriya Pasyuk,Kazakhstan,F,2007,Sub-Juniors,47,46.84,120,130,-135.5,130,-55,55,60,60,110,-125,-125,110,300,1,,SBD,Single-ply
Khuslen Batkhishig,Mongolia,F,2007,Sub-Juniors,84+,94.46,150,-160,160,160,45,52.5,-60,52.5,150,165,-184,165,377.5,2,,SBD,Single-ply
Aidana Mutunova,Kazakhstan,F,2008,Sub-Juniors,57,55.99,140,-155,155,155,75,80,-85,80,110,-117.5,117.5,117.5,352.5,1,,SBD,Single-ply
