Division,WeightClassKg,Place,Name,Team,BodyweightKg,Best3SquatKg,Best3BenchKg,Best3DeadliftKg,TotalKg,Equipment,Event,Sex
Boys,51.71,1,Chris Ortiz,Pecos,51.17,142.88,83.91,142.88,369.68,Single-ply,SBD,M
Boys,51.71,2,Nathan Mendiaz,Monahans,48.08,115.67,63.5,124.74,303.91,Single-ply,SBD,M
Boys,51.71,3,Zachary Alvarez,Fort Stockton,51.71,106.59,56.7,124.74,288.03,Single-ply,SBD,M
Boys,51.71,4,Adrian Leyva,Fort Stockton,50.8,83.91,45.36,99.79,229.06,Single-ply,SBD,M
Boys,55.79,1,Ty Diaz,Andrews,53.43,142.88,74.84,161.03,378.75,Single-ply,SBD,M
Boys,55.79,2,Noel Ybarra,Pecos,55.34,140.61,79.38,154.22,374.21,Single-ply,SBD,M
Boys,55.79,3,Avary Keener,Monahans,55.34,81.65,54.43,90.72,226.8,Single-ply,SBD,M
Boys,55.79,4,Rock Carrasco,Pecos,52.53,68.04,45.36,86.18,199.58,Single-ply,SBD,M
Boys,59.87,1,Xzavier Estrada,Andrews,59.87,176.9,88.45,140.61,405.97,Single-ply,SBD,M
Boys,59.87,2,Kody Collins,Monahans,57.52,127.01,70.31,127.01,324.32,Single-ply,SBD,M
Boys,59.87,3,Vinny Rodriguez,Crane,58.88,104.33,68.04,120.2,292.57,Single-ply,SBD,M
Boys,67.13,1,Christian Arzabala,Andrews,63.96,195.04,113.4,210.92,519.36,Single-ply,SBD,M
Boys,67.13,2,Leroy Sanchez,Andrews,66.68,208.65,90.72,199.58,498.95,Single-ply,SBD,M
Boys,67.13,3,Isiah Petralba,Fort Stockton,64.32,181.44,106.59,163.29,451.32,Single-ply,SBD,M
Boys,67.13,4,Daniel Hernandez,Pecos,62.05,170.1,92.99,167.83,430.91,Single-ply,SBD,M
Boys,67.13,5,Britin Garcia,Andrews,64.77,165.56,95.25,170.1,430.91,Single-ply,SBD,M
Boys,67.13,6,Oscar Solís,Pecos,66.13,142.88,108.86,165.56,417.3,Single-ply,SBD,M
Boys,67.13,7,Raul Vasquez,Andrews,66.68,147.42,83.91,165.56,396.89,Single-ply,SBD,M
Boys,67.13,8,Skyler Short,Alpine,62.05,124.74,95.25,122.47,342.46,Single-ply,SBD,M
Boys,67.13,9,Ryan Orona,Pecos,64.86,113.4,92.99,136.08,342.46,Single-ply,SBD,M
Boys,67.13,10,Charlie Hollon,Pecos,65.77,102.06,68.04,136.08,306.17,Single-ply,SBD,M
Boys,67.13,11,Ernesto Ornleas,Monahans,63.41,88.45,77.11,111.13,276.69,Single-ply,SBD,M
Boys,67.13,12,Jalen Ybarra,Crane,63.5,86.18,61.23,99.79,247.21,Single-ply,SBD,M
Boys,74.84,1,Trino Castaneda,Crane,73.84,158.76,106.59,149.69,415.04,Single-ply,SBD,M
Boys,74.84,2,Jacob Rodriguez #2,Fort Stockton,72.94,149.69,90.72,156.49,396.89,Single-ply,SBD,M
Boys,74.84,3,Gage Glidewell,Alpine,73.39,147.42,77.11,163.29,387.82,Single-ply,SBD,M
Boys,74.84,4,Matteo Nunez,Monahans,74.84,149.69,99.79,136.08,385.55,Single-ply,SBD,M
Boys,74.84,5,Steven Everrett,Fort Stockton,72.12,136.08,72.57,140.61,349.27,Single-ply,SBD,M
Boys,74.84,6,Aaron Ursry,Monahans,70.31,108.86,72.57,129.27,310.71,Single-ply,SBD,M
Boys,74.84,7,Javon Brown,Monahans,69.31,102.06,68.04,138.35,308.44,Single-ply,SBD,M
Boys,74.84,8,Diego Salgado,Monahans,73.39,88.45,45.36,99.79,233.6,Single-ply,SBD,M
Boys,82.1,1,Jose Cornejo,Andrews,82.1,244.94,151.95,254.01,650.91,Single-ply,SBD,M
Boys,82.1,2,Coty Beard,Monahans,75.3,154.22,97.52,185.97,437.72,Single-ply,SBD,M
Boys,82.1,3,Jesse Cobos,Andrews,75.3,170.1,86.18,179.17,435.45,Single-ply,SBD,M
Boys,82.1,4,Victor Carrasco,Alpine,77.47,147.42,86.18,149.69,383.29,Single-ply,SBD,M
Boys,82.1,5,Adrean Perez,Crane,75.3,149.69,88.45,142.88,381.02,Single-ply,SBD,M
Boys,82.1,6,Dobson Munoz,Monahans,75.3,120.2,90.72,149.69,360.61,Single-ply,SBD,M
Boys,82.1,7,Kwave Southall,Monahans,79.38,129.27,86.18,142.88,358.34,Single-ply,SBD,M
Boys,89.81,1,Marcos Rodriguez,Fort Stockton,83.82,226.8,120.2,213.19,560.19,Single-ply,SBD,M
Boys,89.81,2,Duston Vargas,Andrews,89.27,238.14,102.06,204.12,544.31,Single-ply,SBD,M
Boys,89.81,3,Matt Ligon,Monahans,84.82,185.97,90.72,174.63,451.32,Single-ply,SBD,M
Boys,89.81,4,Jonathan Garcia #6,Pecos,85.18,142.88,111.13,181.44,435.45,Single-ply,SBD,M
Boys,89.81,5,Jakolbey Acosta,Monahans,85.18,127.01,92.99,149.69,369.68,Single-ply,SBD,M
Boys,89.81,6,Gil Baeza,Pecos,84.37,133.81,97.52,136.08,367.41,Single-ply,SBD,M
Boys,89.81,7,Hayden Pipkin,Monahans,84.37,136.08,81.65,136.08,353.8,Single-ply,SBD,M
Boys,89.81,8,Caleb Vega,Alpine,83.46,127.01,81.65,129.27,337.93,Single-ply,SBD,M
Boys,89.81,9,Chaise Allen,Monahans,89.45,136.08,83.91,117.93,337.93,Single-ply,SBD,M
Boys,89.81,10,Robert Melendez,Fort Stockton,87.91,95.25,56.7,136.08,288.03,Single-ply,SBD,M
Boys,89.81,DQ,Richard Contreras,Alpine,89.27,151.95,88.45,,,Single-ply,SBD,M
Boys,99.79,1,Esteban López,Andrews,99.79,263.08,156.49,272.16,691.73,Single-ply,SBD,M
Boys,99.79,2,Nick Miller #1,Alpine,91.63,197.31,102.06,188.24,487.61,Single-ply,SBD,M
Boys,99.79,3,Sam Prewit,Pecos,98.43,181.44,108.86,181.44,471.74,Single-ply,SBD,M
Boys,99.79,4,Josh Caldwell,Monahans,97.43,192.78,83.91,165.56,442.25,Single-ply,SBD,M
Boys,99.79,5,Chanse Allen,Monahans,94.71,138.35,79.38,136.08,353.8,Single-ply,SBD,M
Boys,109.77,1,Ben Madrid,Pecos,108.86,213.19,158.76,226.8,598.74,Single-ply,SBD,M
Boys,109.77,2,Justin Rayos,Pecos,109.77,226.8,165.56,204.12,596.47,Single-ply,SBD,M
Boys,109.77,3,Abel Melendez,Pecos,100.15,190.51,90.72,181.44,462.66,Single-ply,SBD,M
Boys,109.77,4,Lucas Delgado,Pecos,100.15,147.42,83.91,113.4,344.73,Single-ply,SBD,M
Boys,109.77,DQ,Hector Diaz,Crane,104.33,133.81,,,,Single-ply,SBD,M
Boys,124.74,1,Chris LeBeouf,Pecos,120.11,244.94,158.76,226.8,630.49,Single-ply,SBD,M
Boys,124.74,2,Oscar Gutierrez,Monahans,124.28,244.94,154.22,188.24,587.4,Single-ply,SBD,M
Boys,124.74,3,Johnny Maldonado,Pecos,117.84,217.72,122.47,226.8,566.99,Single-ply,SBD,M
Boys,124.74,4,Seth Jaramillo,Andrews,123.74,226.8,127.01,213.19,566.99,Single-ply,SBD,M
Boys,124.74,5,Ivan Pena,Fort Stockton,111.13,195.04,113.4,204.12,512.56,Single-ply,SBD,M
Boys,124.74,6,Julian Gervasio,Pecos,110.68,206.38,115.67,185.97,508.02,Single-ply,SBD,M
Boys,124.74,7,James Phillips #6,Crane,110.59,188.24,136.08,181.44,505.76,Single-ply,SBD,M
Boys,124.74,8,Ricky Rosales,Pecos,115.12,181.44,115.67,165.56,462.66,Single-ply,SBD,M
Boys,124.74,9,Sebastian Enriquez,Fort Stockton,117.39,185.97,99.79,158.76,444.52,Single-ply,SBD,M
Boys,124.74,10,Aiden Carlos,Monahans,124.74,142.88,106.59,154.22,403.7,Single-ply,SBD,M
Boys,124.74,11,Hagen Leach,Crane,114.21,124.74,106.59,136.08,367.41,Single-ply,SBD,M
Boys,124.74,12,Alexis Rosas,Crane,111.49,111.13,88.45,102.06,301.64,Single-ply,SBD,M
Boys,124.74,13,Josh Price,Pecos,118.3,90.72,83.91,113.4,288.03,Single-ply,SBD,M
Boys,124.74,14,Margarito Lozano,Monahans,112.04,65.77,45.36,95.25,206.38,Single-ply,SBD,M
Boys,124.74,DQ,Tahjae Collins,Crane,111.95,142.88,,,,Single-ply,SBD,M
Boys,124.74+,1,Malcolm Montez,Monahans,148.32,195.04,138.35,195.04,528.44,Single-ply,SBD,M
Boys,124.74+,2,Chris Samaniego,Monahans,155.58,190.51,129.27,172.37,492.15,Single-ply,SBD,M
Boys,124.74+,3,Eddie Sotelo,Pecos,136.98,199.58,83.91,158.76,442.25,Single-ply,SBD,M
Boys,124.74+,4,Matthew Ortiz,Pecos,137.44,142.88,90.72,147.42,381.02,Single-ply,SBD,M
Boys,124.74+,5,Isaac Leyva,Monahans,155.95,117.93,90.72,120.2,328.85,Single-ply,SBD,M
