Place,Name,Sex,BirthDate,Age,Country,State,Equipment,Division,BodyweightKg,WeightClassKg,Squat1Kg,Squat2Kg,Squat3Kg,Squat4Kg,Best3SquatKg,Bench1Kg,Bench2Kg,Bench3Kg,Bench4Kg,Best3BenchKg,Deadlift1Kg,Deadlift2Kg,Deadlift3Kg,Deadlift4Kg,Best3DeadliftKg,TotalKg,Event,Team
1,Missy Taylor,F,1975-05-04,47,USA,NC,Raw,M2-U,55.4,56,120,127.5,132.5,137.5,132.5,85.5,90,-92.5,,90,137.5,145,147.5,150,147.5,370,SBD,ESP Power
1,Miranda Williams,F,1994-12-04,28,USA,NC,Raw,N-X,82.3,82.5,125,132.5,145,,145,87.5,90,95,,95,137.5,145,152.5,,152.5,392.5,SBD,
1,April Rainey,F,1994-04-20,28,USA,NC,Raw,O-T,58.4,60,100,105,112.5,,112.5,60,67.5,70,,70,125,140,145,,145,327.5,SBD,
1,Missy Taylor,F,1975-05-04,47,USA,NC,Raw,O-U,55.4,56,120,127.5,132.5,137.5,132.5,85.5,90,-92.5,,90,137.5,145,147.5,150,147.5,370,SBD,ESP Power
1,Carmen Trivette,F,2008-10-31,14,USA,NC,Raw,T1-X,51.6,52,60,62.5,67.5,-72.5,67.5,40,42.5,-47.5,,42.5,85,90,95,-102.5,95,205,SBD,ESP Power
1,Katy Silvers,F,1981-06-08,41,USA,NC,Wraps,M1-T,105.4,110,145,157.5,177.5,,177.5,67.5,77.5,80,,80,142.5,157.5,-182.5,,157.5,415,SBD,Nebobarbell
1,Kelly Jeffries,F,1978-01-04,45,USA,NC,Wraps,M2-U,88.4,90,75,92.5,102.5,,102.5,52.5,60,-62.5,,60,87.5,102.5,107.5,,107.5,270,SBD,Iron Country Fitness
1,Kristen Smith #6,F,1997-11-15,25,USA,NC,Wraps,N-X,84.8,90,147.5,152.5,157.5,,157.5,65,70,72.5,,72.5,137.5,145,160,,160,390,SBD,Nebobarbell
1,Katy Silvers,F,1981-06-08,41,USA,NC,Wraps,O-T,105.4,110,145,157.5,177.5,,177.5,67.5,77.5,80,,80,142.5,157.5,-182.5,,157.5,415,SBD,Nebobarbell
1,Kristen Smith #6,F,1997-11-15,25,USA,NC,Wraps,O-U,84.8,90,147.5,152.5,157.5,,157.5,65,70,72.5,,72.5,137.5,145,160,,160,390,SBD,Nebobarbell
1,Anika Harper,F,1980-04-03,42,USA,NC,Single-ply,M1-U,95.8,100,,,,,,110,115,117.5,,117.5,137.5,155,167.5,,167.5,285,BD,Nebobarbell
1,Anika Harper,F,1980-04-03,42,USA,NC,Single-ply,O-U,95.8,100,,,,,,110,115,117.5,,117.5,137.5,155,167.5,,167.5,285,BD,Nebobarbell
1,Shelley Yates,F,1975-07-19,47,USA,NC,Unlimited,M2-U,91.9,100,,,,,,172.5,182.5,190,,190,177.5,190,-207.5,,190,380,BD,Nebobarbell
1,Shelley Yates,F,1975-07-19,47,USA,NC,Unlimited,O-U,91.9,100,,,,,,172.5,182.5,190,,190,177.5,190,-207.5,,190,380,BD,Nebobarbell
1,Linsey Eudy,F,1986-06-27,36,USA,NC,Raw,O-U,88.6,90,,,,,,87.5,97.5,-100,,97.5,,,,,,97.5,B,
1,Linsey Eudy,F,1986-06-27,36,USA,NC,Raw,S-U,88.6,90,,,,,,87.5,97.5,-100,,97.5,,,,,,97.5,B,
1,Anika Harper,F,1980-04-03,42,USA,NC,Single-ply,M1-U,95.8,100,,,,,,110,115,117.5,,117.5,,,,,,117.5,B,Nebobarbell
1,Anika Harper,F,1980-04-03,42,USA,NC,Single-ply,O-U,95.8,100,,,,,,110,115,117.5,,117.5,,,,,,117.5,B,Nebobarbell
1,Melissa Smith #1,F,1974-08-28,48,USA,NC,Unlimited,M2-U,64.3,67.5,,,,,,102.5,127.5,137.5,,137.5,,,,,,137.5,B,Nebobarbell
1,Melissa Smith #1,F,1974-08-28,48,USA,NC,Unlimited,O-U,64.3,67.5,,,,,,102.5,127.5,137.5,,137.5,,,,,,137.5,B,Nebobarbell
1,Anika Harper,F,1980-04-03,42,USA,NC,Single-ply,M1-U,95.8,100,,,,,,,,,,,137.5,155,167.5,,167.5,167.5,D,Nebobarbell
1,Anika Harper,F,1980-04-03,42,USA,NC,Single-ply,O-U,95.8,100,,,,,,,,,,,137.5,155,167.5,,167.5,167.5,D,Nebobarbell
1,Garrett Ratliff,M,2002-11-25,20,USA,NC,Raw,J-T,85.9,90,150,165,170,,170,95,-100,100,,100,192.5,212.5,227.5,,227.5,497.5,SBD,ESP
1,Antonio Lopez,M,2000-09-07,22,USA,NC,Raw,J-T,123.6,125,220,235,245,,245,160,170,-175,,170,247.5,260,-267.5,,260,675,SBD,1776 Fitness Group
1,Mark Robbins,M,2001-03-20,21,USA,NC,Raw,J-T,126.2,140,225,235,247.5,,247.5,170,180,-182.5,,180,230,242.5,250,,250,677.5,SBD,ESP
1,Chris Macera,M,1995-12-19,27,USA,NC,Raw,O-T,80.6,82.5,197.5,207.5,215,,215,152.5,160,-167.5,,160,207.5,217.5,227.5,,227.5,602.5,SBD,Carolina Fitness
1,Damorris Jackson,M,1995-12-03,27,USA,NC,Raw,O-T,97.9,100,212.5,222.5,230,,230,152.5,160,165,,165,260,280,297.5,,297.5,692.5,SBD,
1,Christopher Jones #11,M,1983-05-24,39,USA,NC,Raw,O-T,108,110,215,227.5,235,,235,160,167.5,172.5,,172.5,260,272.5,277.5,282.5,277.5,685,SBD,Train365
1,Adam Stacharowski,M,1996-10-05,26,USA,PA,Raw,O-U,81.5,82.5,215,220,230,,230,-142.5,142.5,-147.5,,142.5,225,230,237.5,,237.5,610,SBD,
1,Daniel Rainey #1,M,1992-02-11,31,USA,NC,Raw,O-U,87.3,90,185,205,227.5,,227.5,130,147.5,-160,,147.5,200,220,235,,235,610,SBD,
1,Christopher Jones #11,M,1983-05-24,39,USA,NC,Raw,S-T,108,110,215,227.5,235,,235,160,167.5,172.5,,172.5,260,272.5,277.5,282.5,277.5,685,SBD,Train365
1,Tate Manning,M,2008-01-24,15,USA,NC,Raw,T1-X,65,67.5,132.5,142.5,150,,150,102.5,110,,,110,147.5,157.5,162.5,,162.5,422.5,SBD,Olympus 365
1,Dustin Spencer,M,2008-01-28,15,USA,NC,Raw,T1-X,78.2,82.5,102.5,107.5,110,,110,62.5,65,72.5,,72.5,145,152.5,160,,160,342.5,SBD,
1,Francisco Martinez,M,2004-09-10,18,USA,NC,Raw,T3-X,88.7,90,185,197.5,207.5,,207.5,107.5,115,122.5,,122.5,192.5,207.5,225,235,225,555,SBD,Bullhead Barbell
1,Zechariah Smith,M,1999-12-11,23,USA,NC,Wraps,J-U,89.1,90,272.5,-282.5,-282.5,,272.5,177.5,182.5,187.5,,187.5,235,242.5,247.5,,247.5,707.5,SBD,Nebobarbell
1,Philip Love,M,1978-04-02,44,USA,NC,Wraps,M1-T,108,110,227.5,240,250,,250,195,210,-220,,210,227.5,260,272.5,282.5,272.5,732.5,SBD,Train365
1,Joshua Jeffries,M,1982-03-14,40,USA,NC,Wraps,M1-U,108.7,110,185,205,-217.5,,205,110,120,130,,130,192.5,205,-215,,205,540,SBD,House of Power
1,Tim Boyce,M,1975-10-01,47,USA,NC,Wraps,M2-U,73.2,75,145,147.5,-150,,147.5,97.5,102.5,,,102.5,142.5,147.5,155,,155,405,SBD,Nebobarbell
1,Philip Love,M,1978-04-02,44,USA,NC,Wraps,MPF-T,108,110,227.5,240,250,,250,195,210,-220,,210,227.5,260,272.5,282.5,272.5,732.5,SBD,Train365
1,Zechariah Smith,M,1999-12-11,23,USA,NC,Wraps,MPF-U,89.1,90,272.5,-282.5,-282.5,,272.5,177.5,182.5,187.5,,187.5,235,242.5,247.5,,247.5,707.5,SBD,Nebobarbell
1,Tim Boyce,M,1975-10-01,47,USA,NC,Wraps,O-U,73.2,75,145,147.5,-150,,147.5,97.5,102.5,,,102.5,142.5,147.5,155,,155,405,SBD,Nebobarbell
1,Zechariah Smith,M,1999-12-11,23,USA,NC,Wraps,O-U,89.1,90,272.5,-282.5,-282.5,,272.5,177.5,182.5,187.5,,187.5,235,242.5,247.5,,247.5,707.5,SBD,Nebobarbell
DQ,Roger Pardue,M,1961-10-23,61,USA,SC,Unlimited,M5-U,94.9,100,-310,317.5,,,317.5,-200,,,,,,,,,,,SBD,Pardue's Iron Club
1,Kent Wall,M,1981-11-28,41,USA,NC,Raw,M1-T,122.3,125,,,,,,165,175,-185,,175,245,265,-285,,265,440,BD,The Pit
1,Roger Pardue,M,1961-10-23,61,USA,SC,Unlimited,M5-U,94.9,100,-310,317.5,,,317.5,,,,,,,,,,,317.5,S,Pardue's Iron Club
1,Robert Cummings,M,1981-11-29,41,USA,NC,Raw,M1-T,93.7,100,,,,,,110,125,-132.5,,125,,,,,,125,B,Iron Atic
NS,Kenny Blackmon,M,1970-07-05,52,USA,SC,Raw,M3-T,,,,,,,,,,,,,,,,,,,B,Team Lancaster
1,Bryan Davis,M,1966-03-20,56,USA,NC,Raw,M4-U,73.1,75,,,,,,105,110,117.5,122.5,117.5,,,,,,117.5,B,
1,Brennan Dagenhart,M,1984-09-19,38,USA,NC,Raw,O-U,89.9,90,,,,,,-192.5,200,212.5,,212.5,,,,,,212.5,B,Gold's Gym
1,Timothy Church,M,1987-03-29,35,USA,NC,Raw,S-T,74.85,75,,,,,,122.5,137.5,-145,,137.5,,,,,,137.5,B,Muzz's Gym
1,Brennan Dagenhart,M,1984-09-19,38,USA,NC,Raw,S-U,89.9,90,,,,,,-192.5,200,212.5,,212.5,,,,,,212.5,B,Gold's Gym
1,Dawell Robinson,M,1987-11-16,35,USA,NC,Raw,S-U,107.1,110,,,,,,167.5,177.5,182.5,,182.5,,,,,,182.5,B,
1,Zechariah Smith,M,1999-12-11,23,USA,NC,Raw,MPF-U,89.1,90,,,,,,177.5,182.5,187.5,,187.5,,,,,,187.5,B,Nebo Barbell
1,Jeff Guller,M,1941-08-04,81,USA,NC,Single-ply,M9-T,83.46,90,,,,,,92.5,95,97.5,,97.5,,,,,,97.5,B,ESP Power
1,Brandon Kee,M,1981-01-31,42,USA,SC,Unlimited,M1-T,134.5,140,,,,,,237.5,-247.5,247.5,,247.5,,,,,,247.5,B,Pardue's Iron Club
1,Chad Church,M,1977-06-13,45,USA,NC,Multi-ply,M2-U,89.5,90,,,,,,227.5,247.5,-260,,247.5,,,,,,247.5,B,
DQ,David Crater,M,1973-05-04,49,USA,NC,Multi-ply,M2-U,126,140,,,,,,-440,-440,-440,,,,,,,,,B,ESP Power
1,Zack Viers,M,1997-03-06,25,USA,NC,Unlimited,O-U,81.8,82.5,,,,,,332.5,-350.5,-350.5,,332.5,,,,,,332.5,B,ESP Power
1,Chad Church,M,1977-06-13,45,USA,NC,Multi-ply,O-U,89.5,90,,,,,,227.5,247.5,-260,,247.5,,,,,,247.5,B,
DQ,Stephen Lane #1,M,1988-02-25,35,USA,SC,Multi-ply,O-U,124.2,125,,,,,,-420,-420,-432.5,,,,,,,,,B,ESP Power
DQ,Stephen Lane #1,M,1988-02-25,35,USA,SC,Multi-ply,S-U,124.2,125,,,,,,-420,-420,-432.5,,,,,,,,,B,ESP Power
1,Seth Tolbert,M,1996-09-25,26,USA,NC,Unlimited,O-U,92.75,100,,,,,,250,-275,-275,,250,,,,,,250,B,ESP
1,Jonah Brooks,M,2002-08-22,20,USA,NC,Raw,J-T,118.5,125,,,,,,,,,,,250,275,-295,,275,275,D,Muzz's Gym
1,James Meacham,M,1980-06-25,42,USA,NC,Raw,M1-U,87.9,90,,,,,,,,,,,257.5,-275,-275,,257.5,257.5,D,
1,Oliver C George,M,1967-02-03,56,USA,VA,Raw,M4-T,113.8,125,,,,,,,,,,,145,185,205,227.5,205,205,D,
1,Oliver C George,M,1967-02-03,56,USA,VA,Raw,MPF-T,113.8,125,,,,,,,,,,,145,185,205,227.5,205,205,D,
1,James Meacham,M,1980-06-25,42,USA,NC,Raw,O-U,87.9,90,,,,,,,,,,,257.5,-275,-275,,257.5,257.5,D,
1,Landon Efird,M,1993-06-08,29,USA,NC,Raw,O-U,163.38,140+,,,,,,,,,,,352.5,367.5,,,367.5,367.5,D,Lifters Gym
1,Mitchell Gelb,M,2001-04-18,21,USA,SC,Single-ply,J-U,87.2,90,,,,,,,,,,,165,182.5,195,,195,195,D,
